64	0	male	49	-13526	1	8020	0	0	0	0	0	0	0	0	0	0	0	false	0	false	false	false	false	0	0	0	0	0	0	0	0	0	0	0	0	0	0	0	0	0	0	0	1	0	S8221	'(DV091 NGB49 V9209 empty empty empty empty empty empty empty empty empty empty empty empty empty empty empty empty empty empty empty TKA00 empty PAW23 NGJ59 NGJ09)'	4	3
1040	8	male	1	0	1	X80	0	0	0	0	0	0	0	0	0	0	0	false	0	false	false	false	false	0	0	0	0	0	0	0	0	0	0	0	0	0	0	0	0	0	0	0	1	0	S8221	'(AAD05 JAH00 KCJ96)'	1	10
1895	1	male	15	0	1	V234	0	0	0	0	0	0	0	0	0	0	0	false	0	false	false	false	false	0	0	0	0	0	0	0	0	0	0	0	0	0	0	0	0	0	0	0	1	0	S8221	'(JAH00 KCJ00 GAB00 NEJ29)'	5	9
1978	1	male	64	0	1	V134	0	0	0	0	0	0	0	0	0	0	0	false	0	false	false	false	false	0	0	0	0	0	0	0	0	0	0	0	0	0	0	0	0	0	0	0	1	0	S8221	'(NGJ29)'	5	7
2307	8	male	42	0	1	V244	0	0	0	0	0	0	0	0	0	0	0	false	0	false	false	false	false	0	0	0	0	0	0	0	0	0	0	0	0	0	0	0	0	0	0	0	1	0	S8221	'(PEA10)'	1	4
2535	-2	male	0	0	1	V234	0	0	0	0	0	0	0	0	0	0	0	false	0	false	false	false	false	0	0	0	0	0	0	0	0	0	0	0	0	0	0	0	0	0	0	0	1	0	S8221	'(JMA10 JAH00)'	5	8
2536	2	male	34	0	1	W31	0	0	0	0	0	0	0	0	0	0	0	false	0	false	false	false	false	0	0	0	0	0	0	0	0	0	0	0	0	0	0	0	0	0	0	0	1	0	S8221	'(V9203)'	1	12
3375	6	male	70	0	1	V435	0	0	0	0	0	0	0	0	0	0	0	false	0	false	false	false	false	0	0	0	0	0	0	0	0	0	0	0	0	0	0	0	0	0	0	0	1	0	S8221	'(empty)'	5	2
4070	3	male	30	0	1	V950	0	0	0	0	0	0	0	0	0	0	0	false	0	false	false	false	false	0	0	0	0	0	0	0	0	0	0	0	0	0	0	0	0	0	0	0	1	0	S8221	'(FXA00)'	5	3
4237	10	woman	46	0	1	J449	0	0	0	0	0	0	0	0	0	0	0	false	0	false	false	false	false	0	0	0	0	0	0	0	0	0	0	0	0	0	0	0	0	0	0	0	1	0	S8221	'(NGJ29 QDB00 QDB05 TNG32 DG023)'	3	4
130	0	male	56	1	1	V031	0	0	0	0	0	0	0	0	0	0	0	false	0	false	false	false	false	0	0	0	0	0	0	0	0	0	0	0	0	0	0	0	0	0	0	0	1	0	S8221	'(QAD00 GBB00 NGJ09 NGJ29 YKA02)'	5	6
249	1	woman	75	1	1	I251	0	0	0	0	0	0	0	0	0	0	0	false	0	false	false	false	false	0	0	0	0	0	0	0	0	0	0	0	0	0	0	0	0	0	0	1	0	0	S8211	'(NGJ19 NGJ29)'	2	6
306	3	woman	74	1	1	V031	0	0	0	0	0	0	0	0	0	0	0	false	0	false	false	false	false	0	0	0	0	0	0	0	0	0	0	0	0	0	0	0	0	0	0	0	1	0	S8221	'(empty NGJ19 NGJ29 QDB05 QDB05 QDB00 QDB00)'	5	11
736	2	woman	85	1	1	I5091	0	0	0	0	0	0	0	0	0	0	0	false	0	false	false	false	false	0	0	0	0	0	0	0	0	0	0	0	0	0	0	0	0	0	0	0	1	0	S8221	'(empty)'	3	1
870	3	male	21	1	1	V485	0	0	0	0	0	0	0	0	0	0	0	false	0	false	false	false	false	0	0	0	0	0	0	0	0	0	0	0	0	0	0	0	0	0	0	0	1	0	S8221	'(JAH00 JDA00 JDB00 JMA10 UJD02 empty)'	5	7
2855	1	male	56	1	1	V435	0	0	0	0	0	0	0	0	0	0	0	false	0	false	false	false	false	0	0	0	0	0	0	0	0	0	0	0	0	0	0	0	0	0	0	1	0	0	S8211	'(NEJ19 NEJ29 NEJ69 TNX40 TNX25 QDB00 JAH00 JBA00 JMA00 QAB00 KCJ00)'	5	1
385	2	male	57	2	1	W30	0	0	0	0	0	0	0	0	0	0	0	false	0	false	false	false	false	0	0	0	0	0	0	0	0	0	0	0	0	0	0	0	0	0	0	1	0	0	S8211	'(empty)'	1	4
2970	8	woman	67	2	1	V041	0	0	0	0	0	0	0	0	0	0	0	false	0	false	false	false	false	0	0	0	0	0	0	0	0	0	0	0	0	0	0	0	0	0	0	0	1	0	S8221	'(empty)'	5	11
3190	9	male	40	2	1	I739	0	0	0	0	0	1	0	0	0	0	0	false	0	false	false	false	false	0	0	0	0	0	0	0	0	0	0	0	0	0	0	0	0	0	0	1	0	0	S8211	'(TPH20 DG018 NFQ19 NGL49 QDB05 DR015)'	2	7
4337	2	woman	69	2	1	V031	0	0	0	0	0	0	0	0	0	0	0	false	0	false	false	false	false	0	0	0	0	0	0	0	0	0	0	0	0	0	0	0	0	0	0	0	1	0	S8221	'(NEJ29 TNX33)'	5	12
1186	3	male	68	4	1	I259	0	0	0	0	0	0	0	0	0	0	0	false	0	false	false	false	false	0	0	0	0	0	0	0	0	0	0	0	0	0	0	0	0	0	0	0	1	0	S8221	'(NGJ09)'	2	6
3105	6	male	53	5	1	V892	0	0	0	0	0	0	0	0	0	0	0	false	0	false	false	false	false	0	0	0	0	0	0	0	0	0	0	0	0	0	0	0	0	0	0	0	1	0	S8221	'(NGJ59 NGJ19 QDB05 ZXD00)'	5	12
3583	2	woman	20	7	1	E142	0	0	0	0	0	0	0	0	0	0	0	false	0	false	false	false	false	0	0	0	0	0	0	0	0	0	0	0	0	0	0	0	0	0	0	0	1	0	S8221	'(empty empty NGJ59)'	1	10
2920	0	male	12	8	1	V234	0	1	1	0	0	1	0	0	0	0	0	false	0	false	false	false	false	0	0	0	0	0	0	0	0	0	0	0	0	0	0	0	0	0	0	0	1	0	S8221	'(NFQ19 GBB96 empty)'	5	8
3746	3	woman	81	8	1	W19	0	0	0	0	0	0	0	0	0	0	0	false	0	false	false	false	false	0	0	0	0	0	0	0	0	0	0	0	0	0	0	0	0	0	0	0	1	0	S8221	'(NGJ09)'	3	7
703	1	male	58	9	1	V475	0	0	0	0	0	0	0	0	0	0	0	false	0	false	false	false	false	0	0	0	0	0	0	0	0	0	0	0	0	0	0	0	0	0	0	1	0	0	S8211	'(empty)'	5	5
337	0	woman	37	11	1	V435	0	0	0	0	0	0	0	0	0	0	0	false	0	false	false	false	false	0	0	0	0	0	0	0	0	0	0	0	0	0	0	0	0	0	0	0	1	0	S8221	'(NEJ79 NGJ59 NGJ09 NFJ89 NFJ09 NBJ59 NBJ09)'	5	12
3056	8	woman	64	11	1	V031	0	0	0	0	0	0	0	0	0	0	0	false	0	false	false	false	false	0	0	0	0	0	0	0	0	0	0	0	0	0	0	0	0	0	0	0	1	0	S8221	'(empty empty NGJ09 NGJ29 NFJ49)'	5	2
3928	9	woman	79	11	1	J459	0	0	0	0	0	0	0	0	0	0	0	false	0	false	false	false	false	0	0	0	0	0	0	0	0	0	0	0	0	0	0	0	0	0	0	0	1	0	S8221	'(ZXA00 NGJ29 NGJ19 QDB05)'	3	2
2461	2	woman	68	12	1	X80	0	0	0	0	0	0	0	0	0	0	0	false	0	false	false	false	false	0	0	0	0	0	0	0	0	0	0	0	0	0	0	0	0	0	0	1	0	0	S8211	'(NBJ09 NFJ29 NGJ29 TKC20)'	4	12
134	10	male	56	15	1	E108	0	0	0	0	0	0	0	0	0	0	0	false	0	false	false	false	false	0	0	0	0	0	0	0	0	0	0	0	0	0	0	0	0	0	0	0	0	1	S8231	'(XS009 empty)'	1	8
1460	9	male	73	16	1	J459	0	0	0	0	0	0	0	0	0	0	0	false	0	false	false	false	false	0	0	0	0	0	0	0	0	0	0	0	0	0	0	0	0	0	0	0	1	0	S8221	'(NGJ59)'	2	1
1593	3	woman	73	16	1	G309	0	0	0	0	0	0	0	0	0	0	0	false	0	false	false	false	false	0	0	0	0	0	0	0	0	0	0	0	0	0	0	0	0	0	0	0	1	0	S8221	'(NGJ59)'	3	9
2791	8	male	52	16	1	I639	0	0	0	0	0	0	0	0	0	0	0	false	0	false	false	false	false	0	0	0	0	0	0	0	0	0	0	0	0	0	0	0	0	0	0	0	1	0	S8221	'(empty NGJ09 NGJ59)'	4	4
2851	9	woman	64	16	1	I110	0	0	0	0	0	0	0	0	0	0	0	false	0	false	false	false	false	0	0	0	0	0	0	0	0	0	0	0	0	0	0	0	0	0	0	0	1	0	S8221	'(empty NGJ59 NGJ09 ZXA05 NHJ79 NHJ09 ZXA00)'	3	6
2365	4	male	43	17	1	W40	0	1	1	0	0	1	0	0	0	0	0	true	0	true	false	false	true	0	0	0	0	0	0	0	0	0	0	0	0	0	1	0	0	0	0	0	1	0	S8221	'(NFQ19 NGJ29 QDB05 QDB10 QDE35 ZXG05 ZZQ30 empty NGJ19 NGJ89 NGM09)'	1	9
2894	-2	male	85	18	1	W19	0	0	0	0	0	0	0	0	0	0	0	false	0	false	false	false	false	0	0	0	0	0	0	0	0	0	0	0	0	0	0	0	0	0	0	0	1	0	S8221	'(NGJ09 TNX25)'	3	2
1827	1	woman	69	20	1	V031	1	1	1	0	0	0	0	1	0	0	0	false	0	false	false	false	false	0	0	0	0	0	0	0	0	0	0	0	0	0	0	0	0	0	0	1	0	0	S8211	'(NGQ09 NGJ09 NBJ09 NBJ49 NBJ19)'	5	12
345	1	male	43	23	1	V031	0	0	0	0	0	0	0	0	0	0	0	true	1	false	true	false	false	0	0	0	0	0	0	0	0	0	0	0	0	0	0	0	0	0	1	0	1	0	S8221	'(empty JDB10 GBB00 QDB99 ZZA00 AAA20 AAA27 AAA99)'	5	12
3202	8	woman	71	25	1	I251	0	0	0	0	0	0	0	0	0	0	0	false	0	false	false	false	false	0	0	0	0	0	0	0	0	0	0	0	0	0	0	0	0	0	0	0	1	0	S8221	'(NBJ19 NBJ59)'	1	9
2721	5	woman	77	27	1	I259	0	0	0	0	0	0	0	0	0	0	0	false	0	false	false	false	false	0	0	0	0	0	0	0	0	0	0	0	0	0	0	0	0	0	0	0	0	1	S8231	'(NHJ29 NHJ09)'	3	5
75	0	woman	71	30	1	W05	0	0	0	0	0	0	0	0	0	0	0	false	0	false	false	false	false	0	0	0	0	0	0	0	0	0	0	0	0	0	0	0	0	0	0	0	1	0	S8221	'(NGJ09 NGJ59)'	1	12
677	4	woman	81	32	1	W19	0	0	0	0	0	0	0	0	0	0	0	false	0	false	false	false	false	0	0	0	0	0	0	0	0	0	0	0	0	0	0	0	0	0	0	0	1	0	S8221	'(NGD19 NGJ29)'	3	11
659	0	woman	76	33	1	R54	0	0	0	0	0	0	0	0	0	0	0	false	0	false	false	false	false	0	0	0	0	0	0	0	0	0	0	0	0	0	0	0	0	0	0	0	0	1	S8231	'(NFJ89 NFJ09 NGJ09 TNX30 empty)'	3	1
4105	-2	male	50	34	1	V051	0	0	0	0	0	0	0	0	0	0	0	true	0	true	true	false	true	0	0	0	0	0	0	0	0	0	0	0	1	0	0	0	0	0	1	0	1	0	S8221	'(NFJ29 NGJ09 QBE30 ZZA00 ZZQ10)'	3	5
4389	6	male	79	35	1	I5099	0	0	0	0	0	0	0	0	0	0	0	false	0	false	false	false	false	0	0	0	0	0	0	0	0	0	0	0	0	0	0	0	0	0	0	0	1	0	S8221	'(NGJ19 NGJ59)'	3	7
1022	5	woman	69	36	1	K625	0	0	0	0	0	0	0	0	0	0	0	false	0	false	false	false	false	0	0	0	0	0	0	0	0	0	0	0	0	0	0	0	0	0	0	0	0	1	S8231	'(empty empty empty)'	2	11
2903	8	male	62	36	1	K550	0	0	0	0	0	0	0	0	0	0	0	false	0	false	false	false	false	0	0	0	0	0	0	0	0	0	0	0	0	0	0	0	0	0	0	0	0	1	S8231	'(TPH15 empty DQ023 DT016 NGJ29 NHS99)'	1	5
1167	7	male	47	39	1	W31	0	1	1	0	1	0	0	0	0	0	0	false	0	false	false	false	false	0	0	0	0	0	0	0	0	0	0	0	0	0	0	0	0	0	0	0	0	1	S8231	'(QDG20 DG021 AA011 AG040 NEU39 NGQ19 ZXA05 PFH99 XPX20 NEW89 PHB99 QBB00 AAA27 DG021 DQ023 NEJ09 NEJ29 JAH00)'	5	5
2930	8	male	44	43	1	X590	0	0	0	0	0	0	0	0	0	0	0	false	0	false	false	false	false	0	0	0	0	0	0	0	0	0	0	0	0	0	0	0	0	0	0	0	1	0	S8221	'(NGJ29 ZXA05 ZXD00)'	4	10
4164	4	male	76	43	1	I5099	0	0	0	0	0	0	0	0	0	0	0	false	0	false	false	false	false	0	0	0	0	0	0	0	0	0	0	0	0	0	0	0	0	0	0	0	0	1	S8231	'(NFJ19 NFJ89 TNX40)'	3	7
1755	10	woman	75	44	1	I639	1	1	1	0	0	1	0	0	0	0	0	false	0	false	false	false	false	0	0	0	0	0	0	0	0	0	0	0	0	0	0	0	0	0	0	0	1	0	S8221	'(NGJ19 QDB05 NGJ59 NFQ19 ZXA00)'	3	5
2529	4	male	64	45	1	X590	0	1	1	0	1	0	0	0	0	0	0	false	0	false	false	false	false	0	0	0	0	0	0	0	0	0	0	0	0	0	0	0	0	0	0	0	0	1	S8231	'(JFK00 JAD30 NGQ19 NGQ19 empty NGJ69)'	2	4
448	7	male	64	47	1	I48	0	0	0	0	0	0	0	0	0	0	0	false	0	false	false	false	false	0	0	0	0	0	0	0	0	0	0	0	0	0	0	0	0	0	0	0	0	1	S8231	'(empty NGJ59)'	3	11
2563	-1	woman	69	48	1	I679	0	0	0	0	0	0	0	0	0	0	0	false	0	false	false	false	false	0	0	0	0	0	0	0	0	0	0	0	0	0	0	0	0	0	0	1	0	0	S8211	'(empty empty empty UJD02 NGJ09)'	1	3
2665	5	male	73	48	1	G309	0	0	0	0	0	0	0	0	0	0	0	false	0	false	false	false	false	0	0	0	0	0	0	0	0	0	0	0	0	0	0	0	0	0	0	0	0	1	S8231	'(empty NFJ79 KCD02 empty)'	3	12
1839	9	woman	81	49	1	I110	0	0	0	0	0	0	0	0	0	0	0	false	0	false	false	false	false	0	0	0	0	0	0	0	0	0	0	0	0	0	0	0	0	0	0	0	1	0	S8221	'(NGJ19 NGJ29)'	2	4
2277	9	woman	75	49	1	X590	0	0	0	0	0	0	0	0	0	0	0	false	0	false	false	false	false	0	0	0	0	0	0	0	0	0	0	0	0	0	0	0	0	0	0	0	1	0	S8221	'(empty DR029 empty NGJ59 XXA00)'	2	6
3873	9	male	67	51	1	I219	1	1	1	0	1	0	0	0	0	0	0	false	0	false	false	false	false	0	0	0	0	0	0	0	0	0	0	0	0	0	0	0	0	0	0	0	1	0	S8221	'(NGQ19 DR029)'	5	6
3221	7	woman	33	55	1	V436	0	0	0	0	0	0	0	0	0	0	0	false	0	false	false	false	false	0	0	0	0	0	0	0	0	0	0	0	0	0	0	0	0	0	0	0	1	0	S8221	'(DQ023 DG021 DG016 DR029 DR036 DR020 DG021 DG001 DR020 UJD02 UJC02 DG021 GBB00 GAB00 JAH00 FCC45 GAA10 ZXA10 GDB10 UGC12 NEJ19 NEJ69 PCB99)'	5	10
3784	0	male	65	55	1	V860	0	0	0	0	0	0	0	0	0	0	0	false	0	false	false	false	false	0	0	0	0	0	0	0	0	0	0	0	0	0	0	0	0	0	0	0	0	1	S8231	'(empty GBB00 NGJ19 NGJ79 ZXH40 UJD02 JDB10 ZXH00)'	5	3
1685	-1	woman	82	62	1	I5099	0	0	0	0	0	1	0	0	0	0	0	false	0	false	false	false	false	0	0	0	0	0	0	0	0	0	0	0	0	0	0	0	0	0	0	0	1	0	S8221	'(NFQ19)'	2	3
3213	10	woman	58	70	1	G409	0	0	0	0	0	0	0	0	0	0	0	false	0	false	false	false	false	0	0	0	0	0	0	0	0	0	0	0	0	0	0	0	0	0	0	0	0	1	S8231	'(NGJ09 NGJ29 NGJ69 NGU49)'	3	1
829	4	male	67	72	1	C61	0	0	0	0	0	0	0	0	0	0	0	false	0	false	false	false	false	0	0	0	0	0	0	0	0	0	0	0	0	0	0	0	0	0	0	1	0	0	S8211	'(empty empty empty empty QDB05 QDB00)'	3	2
3790	7	male	61	80	1	V031	0	0	0	0	0	0	0	0	0	0	0	true	1	false	true	false	false	0	0	0	0	0	0	0	0	0	0	0	0	0	0	0	0	0	1	0	1	0	S8221	'(empty QDB05 QDB00 QDB00 NGN99 ZZA00 UJD02 AAD10 UJD02 empty NFJ59 NGJ59 NGM09 NGJ29 GBB00)'	5	9
1694	2	woman	66	85	1	C509	1	1	1	0	1	0	0	0	0	0	0	true	1	false	true	false	false	0	0	0	0	0	0	0	0	0	0	0	0	0	0	0	0	0	1	0	1	0	S8221	'(empty NGJ09 NGJ29 NGA02 ZZA00 NGJ29 QDB05 NGQ19)'	2	3
1108	9	woman	73	87	1	I698	0	0	0	0	0	0	0	0	0	0	0	false	0	false	false	false	false	0	0	0	0	0	0	0	0	0	0	0	0	0	0	0	0	0	0	0	1	0	S8221	'(TNG33)'	1	12
39	5	male	47	93	1	E100	0	0	0	0	0	0	0	0	0	0	0	false	0	false	false	false	false	0	0	0	0	0	0	0	0	0	0	0	0	0	0	0	0	0	0	0	0	1	S8231	'(V9509 V9524 UGC12 V9524 V9122 empty NGJ59 TNX40 NGJ09)'	1	4
1276	2	male	56	96	1	I219	0	0	0	0	0	0	0	0	0	0	0	false	0	false	false	false	false	0	0	0	0	0	0	0	0	0	0	0	0	0	0	0	0	0	0	1	0	0	S8211	'(empty empty empty)'	3	11
966	2	male	30	100	1	V892	0	0	0	0	0	0	0	0	0	0	0	false	0	false	false	false	false	0	0	0	0	0	0	0	0	0	0	0	0	0	0	0	0	0	0	0	0	1	S8231	'(empty empty empty empty AAF05 AAF25 NFJ19 NFJ59 AAF20 AAA27 NCJ69 NCJ19)'	5	5
3402	-2	woman	62	117	1	W01	0	0	0	0	0	0	0	0	0	0	0	false	0	false	false	false	false	0	0	0	0	0	0	0	0	0	0	0	0	0	0	0	0	0	0	1	0	0	S8211	'(empty)'	3	7
2084	2	woman	73	118	1	J209	0	0	0	0	0	0	0	0	0	0	0	false	0	false	false	false	false	0	0	0	0	0	0	0	0	0	0	0	0	0	0	0	0	0	0	0	0	1	S8231	'(empty)'	1	8
3360	6	woman	80	119	1	I469	0	0	0	0	0	0	0	0	0	0	0	false	0	false	false	false	false	0	0	0	0	0	0	0	0	0	0	0	0	0	0	0	0	0	0	0	0	1	S8231	'(empty)'	3	7
1594	8	woman	67	122	1	I48	0	0	0	0	0	0	0	0	0	0	0	true	1	false	true	false	false	0	0	0	0	0	0	0	0	0	0	0	0	0	0	0	0	0	1	1	0	0	S8211	'(empty JDB00 JCA55 GAA10 QDE35 SA111 ZZA00 SP211 DQ023 UJD02 NGJ09 NGJ29 QDB05)'	3	12
1162	8	male	48	126	1	I514	0	0	0	0	0	0	0	0	0	0	0	false	0	false	false	false	false	0	0	0	0	0	0	0	0	0	0	0	0	0	0	0	0	0	0	0	0	1	S8231	'(empty empty empty DV094 NGJ19 NGJ69)'	2	8
1957	4	male	49	126	1	I739	1	1	1	0	1	1	0	0	0	0	0	false	0	false	false	false	false	0	0	0	0	0	0	0	0	0	0	0	0	0	0	0	0	0	0	0	1	0	S8221	'(empty NFQ09 empty NGQ19 NGQ19 NFQ19)'	1	1
3614	-2	woman	69	129	1	I679	0	0	0	0	0	0	0	0	0	0	0	false	0	false	false	false	false	0	0	0	0	0	0	0	0	0	0	0	0	0	0	0	0	0	0	0	0	1	S8231	'(TNX25 empty NGJ29 NGJ09)'	1	9
2159	-1	male	17	131	1	X78	0	0	0	0	0	0	0	0	0	0	0	false	0	false	false	false	false	0	0	0	0	0	0	0	0	0	0	0	0	0	0	0	0	0	0	0	1	0	S8221	'(empty empty NGJ59)'	3	8
985	3	woman	63	139	1	I801	0	0	0	0	0	0	0	0	0	0	0	false	0	false	false	false	false	0	0	0	0	0	0	0	0	0	0	0	0	0	0	0	0	0	0	0	1	0	S8221	'(empty UJD02 UJD02 NGJ29 NGJ09)'	3	1
2045	8	woman	77	141	1	I209	0	0	0	0	0	0	0	0	0	0	0	false	0	false	false	false	false	0	0	0	0	0	0	0	0	0	0	0	0	0	0	0	0	0	0	0	1	0	S8221	'(empty empty empty TNG33)'	3	10
4343	1	woman	60	142	1	I5169	0	0	0	0	0	1	0	0	0	0	0	false	0	false	false	false	false	0	0	0	0	0	0	0	0	0	0	0	0	0	0	0	0	0	0	0	0	1	S8231	'(JFB20 PEE12 NFQ19 NGJ59 NGU49 TNX33 NGJ09 NGJ29 NGT49 NGJ09 NGJ29 QDB05)'	3	4
1556	2	woman	77	147	1	I639	0	0	0	0	0	0	0	0	0	0	0	false	0	false	false	false	false	0	0	0	0	0	0	0	0	0	0	0	0	0	0	0	0	0	0	0	1	0	S8221	'(empty NGJ99)'	1	6
2977	1	woman	58	147	1	I219	0	0	0	0	0	0	0	0	0	0	0	false	0	false	false	false	false	0	0	0	0	0	0	0	0	0	0	0	0	0	0	0	0	0	0	0	0	1	S8231	'(empty empty NGJ09 NHJ19 NHJ99)'	3	1
1503	6	woman	72	149	1	I64	0	0	0	0	0	0	0	0	0	0	0	false	0	false	false	false	false	0	0	0	0	0	0	0	0	0	0	0	0	0	0	0	0	0	0	0	1	0	S8221	'(empty empty empty empty UJF02 DR029 DR029)'	3	8
245	7	woman	74	155	1	I219	0	0	0	0	0	0	0	0	0	0	0	false	0	false	false	false	false	0	0	0	0	0	0	0	0	0	0	0	0	0	0	0	0	0	0	1	0	0	S8211	'(empty NFU49 NFB49 NFJ09 NFJ79 NGJ09 TNG32)'	4	10
213	8	woman	77	165	1	I639	0	0	0	0	0	0	0	0	0	0	0	false	0	false	false	false	false	0	0	0	0	0	0	0	0	0	0	0	0	0	0	0	0	0	0	0	1	0	S8221	'(empty NGJ59 DR029)'	1	8
1803	8	male	56	165	1	V031	0	0	0	0	0	0	0	0	0	0	0	false	0	false	false	false	false	0	0	0	0	0	0	0	0	0	0	0	0	0	0	0	0	0	0	0	0	1	S8231	'(GBB00 GWD00 GBB00 GBB96 JAH00 JAP00 JMA10 PHB99 JDB00 NHJ09 NHJ29 ZXA10)'	5	12
2275	1	woman	69	166	1	I5099	0	0	0	0	0	0	0	0	0	0	0	true	0	false	true	true	false	0	1	0	0	0	0	0	0	0	0	0	0	0	0	0	0	0	1	0	1	0	S8221	'(empty NGU49 empty QDE35 NGL29 ZZR10 ZZA00 QDE99 NGJ69)'	3	7
3703	4	male	59	172	1	C61	0	0	0	0	0	0	0	0	0	0	0	false	0	false	false	false	false	0	0	0	0	0	0	0	0	0	0	0	0	0	0	0	0	0	0	0	1	0	S8221	'(empty JFF26 JFA70 NGJ09 NGJ59 QWA00)'	5	10
748	2	male	62	174	1	I251	0	0	0	0	0	0	0	0	0	0	0	false	0	false	false	false	false	0	0	0	0	0	0	0	0	0	0	0	0	0	0	0	0	0	0	0	0	1	S8231	'(empty empty)'	3	1
3206	8	male	43	179	1	V039	0	0	0	0	0	0	0	0	0	0	0	false	0	false	false	false	false	0	0	0	0	0	0	0	0	0	0	0	0	0	0	0	0	0	0	0	1	0	S8221	'(empty empty GBB00 PAH20 PAB20 XPX00 FCC45 GAA10 ZXA10 NGJ09 ZXA10 NGJ29 ZXA10 NGJ59)'	5	2
2599	3	male	45	186	1	E116	0	0	0	0	0	0	0	0	0	0	0	false	0	false	false	false	false	0	0	0	0	0	0	0	0	0	0	0	0	0	0	0	0	0	0	0	1	0	S8221	'(empty NGJ49 NGU49 NGJ09 NGN09 empty empty NGJ29 NGU39 empty)'	5	9
2059	0	woman	55	188	1	I64	0	0	0	0	0	0	0	0	0	0	0	false	0	false	false	false	false	0	0	0	0	0	0	0	0	0	0	0	0	0	0	0	0	0	0	0	0	1	S8231	'(NHJ99 empty empty NGJ19 NGJ29)'	3	11
2655	1	woman	66	189	1	I251	0	0	0	0	0	0	0	0	0	0	0	false	0	false	false	false	false	0	0	0	0	0	0	0	0	0	0	0	0	0	0	0	0	0	0	0	1	0	S8221	'(NGU39 empty NGJ19 NGJ29 NGJ99)'	3	5
1950	2	male	58	197	1	A310	0	0	0	0	0	0	0	0	0	0	0	false	0	false	false	false	false	0	0	0	0	0	0	0	0	0	0	0	0	0	0	0	0	0	0	0	1	0	S8221	'(empty empty NGJ29 QDB00)'	4	6
964	0	woman	67	203	1	I260	0	0	0	0	0	0	0	0	0	0	0	false	0	false	false	false	false	0	0	0	0	0	0	0	0	0	0	0	0	0	0	0	0	0	0	0	0	1	S8231	'(empty NGJ09 TNX30 TNX30)'	3	11
1255	0	male	74	206	1	C61	0	1	1	0	0	0	0	1	0	0	0	false	0	false	false	false	false	0	0	0	0	0	0	0	0	0	0	0	0	0	0	0	0	0	0	0	0	1	S8231	'(empty NGQ09 empty NGJ29 QDG30)'	3	8
1370	3	woman	62	206	1	I639	0	0	0	0	0	0	0	0	0	0	0	false	0	false	false	false	false	0	0	0	0	0	0	0	0	0	0	0	0	0	0	0	0	0	0	1	0	0	S8211	'(empty empty empty)'	4	6
52	7	woman	71	210	1	I639	0	0	0	0	0	0	0	0	0	0	0	false	0	false	false	false	false	0	0	0	0	0	0	0	0	0	0	0	0	0	0	0	0	0	0	0	1	0	S8221	'(empty NGJ09)'	1	3
758	3	male	34	215	1	I420	0	0	0	0	0	0	0	0	0	0	0	false	0	false	false	false	false	0	0	0	0	0	0	0	0	0	0	0	0	0	0	0	0	0	0	0	0	1	S8231	'(empty NGJ69 NGJ19 NGJ09 NGJ29 NGJ19)'	3	8
1767	1	woman	43	216	1	J189	0	0	0	0	0	0	0	0	0	0	0	false	0	false	false	false	false	0	0	0	0	0	0	0	0	0	0	0	0	0	0	0	0	0	0	0	0	1	S8231	'(empty empty NGU39 NGW59 QDB10 QDB10 QCB10 QDB10 NGJ09 NGJ29)'	3	9
2377	7	woman	26	217	1	Y12	0	0	0	0	0	0	0	0	0	0	0	false	0	false	false	false	false	0	0	0	0	0	0	0	0	0	0	0	0	0	0	0	0	0	0	0	1	0	S8221	'(NGJ59 ZXA05 ZXD00)'	1	4
3877	0	woman	63	219	1	D759	0	0	0	0	0	0	0	0	0	0	0	false	0	false	false	false	false	0	0	0	0	0	0	0	0	0	0	0	0	0	0	0	0	0	0	1	0	1	S8211	'(empty empty)'	1	7
841	10	woman	24	228	1	X99	0	0	0	0	0	0	0	0	0	0	0	false	0	false	false	false	false	0	0	0	0	0	0	0	0	0	0	0	0	0	0	0	0	0	0	0	0	1	S8231	'(UJD02 NGU49 QDB10 QDB05 DQ023 QDB05 NGJ69 NGJ09 TNG32)'	3	3
3115	1	woman	70	228	1	F019	0	0	0	0	0	0	0	0	0	0	0	false	0	false	false	false	false	0	0	0	0	0	0	0	0	0	0	0	0	0	0	0	0	0	0	0	0	1	S8231	'(empty)'	3	12
1971	-2	woman	59	240	1	I110	0	0	0	0	0	0	0	0	0	0	0	false	0	false	false	false	false	0	0	0	0	0	0	0	0	0	0	0	0	0	0	0	0	0	0	0	1	0	S8221	'(empty NFJ19 NFJ69 empty empty empty NHU39 XXA00)'	3	11
2070	8	male	42	243	1	C189	0	0	0	0	0	0	0	0	0	0	0	false	0	false	false	false	false	0	0	0	0	0	0	0	0	0	0	0	0	0	0	0	0	0	0	0	1	0	S8221	'(empty JFF10 TPX10 UJF35 empty NGJ59 NGJ69)'	3	10
3630	4	male	44	245	1	C439	0	0	0	0	0	0	0	0	0	0	0	false	0	false	false	false	false	0	0	0	0	0	0	0	0	0	0	0	0	0	0	0	0	0	0	0	0	1	S8231	'(empty NHF39 NHJ69 NHJ79 NHN09)'	4	5
794	2	male	62	247	1	E149	1	1	1	0	0	1	0	0	0	0	0	false	0	false	false	false	false	0	0	0	0	0	0	0	0	0	0	0	0	0	0	0	0	0	0	0	1	0	S8221	'(empty empty empty NFQ19)'	1	8
4107	8	male	58	251	1	A419	0	1	1	0	1	0	0	0	0	0	0	false	0	false	false	false	false	0	0	0	0	0	0	0	0	0	0	0	0	0	0	0	0	0	0	0	0	1	S8231	'(DR020 DF023 DF023 DG017 DG021 AP051 AP051 DG001 TPH20 DR015 ZXH60 empty NGQ19 NHJ09 QDB05 QDB10 NHS09 NDS09 DQ023)'	1	11
3028	1	woman	73	252	1	G309	0	0	0	0	0	0	0	0	0	0	0	false	0	false	false	false	false	0	0	0	0	0	0	0	0	0	0	0	0	0	0	0	0	0	0	0	1	0	S8221	'(NGJ59 TNX40)'	1	3
1969	0	male	55	256	1	C259	0	0	0	0	0	0	0	0	0	0	0	false	0	false	false	false	false	0	0	0	0	0	0	0	0	0	0	0	0	0	0	0	0	0	0	0	1	0	S8221	'(JAL00 UJD02 JDH32 JDW98 NGJ09 NGJ59)'	4	8
3509	7	woman	82	256	1	I219	0	0	0	0	0	0	0	0	0	0	0	false	0	false	false	false	false	0	0	0	0	0	0	0	0	0	0	0	0	0	0	0	0	0	0	0	0	1	S8231	'(AF022 DR029 AF022 AF022 TNG34 NGJ09 TNG34)'	3	8
1657	-2	male	29	261	1	M0699	0	0	0	0	0	0	0	0	0	0	0	false	0	false	false	false	false	0	0	0	0	0	0	0	0	0	0	0	0	0	0	0	0	0	0	0	0	1	S8231	'(empty empty empty NGJ09 NGJ59 QDB99 TNX40)'	4	2
695	9	woman	65	266	1	I48	0	0	0	0	0	0	0	0	0	0	0	false	0	false	false	false	false	0	0	0	0	0	0	0	0	0	0	0	0	0	0	0	0	0	0	1	0	0	S8211	'(DT016 DT019 DG015 AP029 empty DT016 DT019 DG015 AP029 empty DR029 DT016 DT019 DR029 DR029 DT016 DT016 DT019 DT019 DT029 DT016 DT019 NGJ29 NGJ49)'	2	10
4050	2	woman	39	277	1	C439	0	0	0	0	0	0	0	0	0	0	0	false	0	false	false	false	false	0	0	0	0	0	0	0	0	0	0	0	0	0	0	0	0	0	0	0	1	0	S8221	'(empty empty empty empty empty NHJ89)'	3	7
3894	-2	male	61	283	1	C349	1	1	1	0	0	1	0	0	0	0	0	false	0	false	false	false	false	0	0	0	0	0	0	0	0	0	0	0	0	0	0	0	0	0	0	0	1	0	S8221	'(empty AAD10 NFQ19)'	5	11
4267	9	male	6	294	1	V479	0	0	0	0	0	0	0	0	0	0	0	false	0	false	false	false	false	0	0	0	0	0	0	0	0	0	0	0	0	0	0	0	0	0	0	0	1	0	S8221	'(JAH00 GAB00 JJA00 JJA50 NGJ29 NGJ29 QDB05 DQ023 QDB05 DQ023 NGJ29 QDB05 DQ023 QDB05 DQ023 QDB05 DQ023 PFA30 XPX99 DA002)'	5	6
2849	9	male	73	297	1	F039	0	0	0	0	0	0	0	0	0	0	0	false	0	false	false	false	false	0	0	0	0	0	0	0	0	0	0	0	0	0	0	0	0	0	0	0	1	0	S8221	'(empty KFC00 KFC00 KFA40 NGJ29 NGJ09 QDB05 NGJ29 QDG30 NGU39)'	3	3
3787	10	woman	66	301	1	I64	0	0	0	0	0	0	0	0	0	0	0	false	0	false	false	false	false	0	0	0	0	0	0	0	0	0	0	0	0	0	0	0	0	0	0	0	1	0	S8221	'(empty empty)'	2	1
2876	-1	male	23	311	1	I803	0	0	0	0	0	0	0	0	0	0	0	false	0	false	false	false	false	0	0	0	0	0	0	0	0	0	0	0	0	0	0	0	0	0	0	0	1	0	S8221	'(empty empty TNX30)'	3	3
278	6	woman	74	315	1	I499	0	0	0	0	0	0	0	0	0	0	0	false	0	false	false	false	false	0	0	0	0	0	0	0	0	0	0	0	0	0	0	0	0	0	0	1	0	0	S8211	'(empty TNG33)'	3	7
1188	1	woman	73	319	1	L984	0	0	0	0	0	0	0	0	0	0	0	false	0	false	false	false	false	0	0	0	0	0	0	0	0	0	0	0	0	0	0	0	0	0	0	1	0	0	S8211	'(empty empty)'	3	7
2204	1	woman	72	319	1	J449	0	0	0	0	0	0	0	0	0	0	0	false	0	false	false	false	false	0	0	0	0	0	0	0	0	0	0	0	0	0	0	0	0	0	0	0	1	0	S8221	'(empty empty empty)'	3	8
3362	4	woman	55	320	1	E146	0	1	1	0	1	0	0	0	0	0	0	false	0	false	false	false	false	0	0	0	0	0	0	0	0	0	0	0	0	0	0	0	0	0	0	0	0	1	S8231	'(V9225 NGQ19 ZXH40 ZXA05 V9209 empty NFJ59 ZXH40 ZXA00 V9209 empty NHJ09 NHJ29 ZXH60 ZXA05 V9209)'	3	6
256	-1	woman	18	325	1	X70	0	0	0	0	0	0	0	0	0	0	0	false	0	false	false	false	false	0	0	0	0	0	0	0	0	0	0	0	0	0	0	0	0	0	0	1	0	0	S8211	'(empty empty empty empty NGU49 empty empty empty empty empty empty empty empty empty empty empty empty)'	1	1
2299	10	woman	51	334	1	G122	0	0	0	0	0	0	0	0	0	0	0	false	0	false	false	false	false	0	0	0	0	0	0	0	0	0	0	0	0	0	0	0	0	0	0	0	0	1	S8231	'(empty)'	2	1
709	4	male	11	350	1	X44	0	0	0	0	0	0	0	0	0	0	0	true	1	false	true	false	false	0	0	0	0	0	0	0	0	0	0	0	0	0	0	0	0	0	1	0	1	0	S8221	'(NGU49 empty empty empty empty empty empty empty QDB05 ZZA00 QDB10 QDB99 QDB10 QDB99 QDB10 QDB99 QDB10 QDB99 QDB10 QDB10 V9510 NGJ29 ZXA10 QDB05 ZXA10 NGJ59 NGJ09 NGJ29 NGJ19 GAA10)'	5	9
365	0	woman	55	355	1	C80	0	0	0	0	0	0	0	0	0	0	0	false	0	false	false	false	false	0	0	0	0	0	0	0	0	0	0	0	0	0	0	0	0	0	0	0	1	0	S8221	'(empty empty empty NHJ49 TNX25 NGJ69 NGJ19 NHJ19)'	5	1
3562	2	woman	62	364	1	I259	0	0	0	0	0	0	0	0	0	0	0	false	0	false	false	false	false	0	0	0	0	0	0	0	0	0	0	0	0	0	0	0	0	0	0	0	1	0	S8221	'(empty empty empty empty NGJ29 NGJ09 empty NGJ29 NGJ09)'	3	10
195	8	male	17	373	1	Y12	0	0	0	0	0	0	0	0	0	0	0	false	0	false	false	false	false	0	0	0	0	0	0	0	0	0	0	0	0	0	0	0	0	0	0	0	1	0	S8221	'(EEU00 NGJ69 ZXA05 ZXD10 empty NGJ29 NGJ09 QDB05)'	1	5
3471	5	woman	65	382	1	N179	0	0	0	0	0	0	0	0	0	0	0	false	0	false	false	false	false	0	0	0	0	0	0	0	0	0	0	0	0	0	0	0	0	0	0	1	0	0	S8211	'(empty V9208 empty empty empty empty empty empty empty empty NGJ29 NFJ09 ZXD00)'	3	10
2393	5	woman	69	388	1	I64	0	0	0	0	0	0	0	0	0	0	0	false	0	false	false	false	false	0	0	0	0	0	0	0	0	0	0	0	0	0	0	0	0	0	0	0	0	1	S8231	'(NGU39 XXA00 PEP12 XPX99 QDB05 NGJ29 NGJ29)'	3	9
2624	6	male	49	415	1	I219	0	0	0	0	0	0	0	0	0	0	0	false	0	false	false	false	false	0	0	0	0	0	0	0	0	0	0	0	0	0	0	0	0	0	0	0	1	0	S8221	'(NGJ09 NGJ49 TNB39 NBJ69 NBJ19)'	5	3
2419	5	male	45	420	1	I251	0	0	0	0	0	0	0	0	0	0	0	false	0	false	false	false	false	0	0	0	0	0	0	0	0	0	0	0	0	0	0	0	0	0	0	0	1	0	S8221	'(NDJ19 NDJ59)'	2	6
481	1	male	66	421	1	I5091	0	0	0	0	0	0	0	0	0	0	0	false	0	false	false	false	false	0	0	0	0	0	0	0	0	0	0	0	0	0	0	0	0	0	0	0	1	0	S8221	'(empty empty NHU49 empty empty empty empty empty empty empty NGJ19 NGJ69)'	3	6
4226	6	male	42	421	1	Y860	0	0	0	0	0	0	0	0	0	0	0	false	0	false	false	false	false	0	0	0	0	0	0	0	0	0	0	0	0	0	0	0	0	0	0	0	1	0	S8221	'(GBB00 empty empty empty NGJ59 NGJ09 XXA00)'	3	3
2897	-2	woman	72	425	1	K831	0	0	0	0	0	0	0	0	0	0	0	false	0	false	false	false	false	0	0	0	0	0	0	0	0	0	0	0	0	0	0	0	0	0	0	0	0	1	S8231	'(empty empty empty NHU49 empty NHJ49 NHJ09)'	3	8
3030	-2	male	3	436	1	W74	0	0	0	0	0	0	0	0	0	0	0	false	0	false	false	false	false	0	0	0	0	0	0	0	0	0	0	0	0	0	0	0	0	0	0	0	1	0	S8221	'(empty NGJ09 NGJ29)'	3	2
2528	7	male	35	440	1	I5199	0	0	0	0	0	0	0	0	0	0	0	false	0	false	false	false	false	0	0	0	0	0	0	0	0	0	0	0	0	0	0	0	0	0	0	1	0	0	S8211	'(empty empty NHU39 NGJ09 NGJ29 QDB05 NGJ09 QDG30 NGJ29 DR029)'	1	11
103	-2	male	54	443	1	C61	0	0	0	0	0	0	0	0	0	0	0	false	0	false	false	false	false	0	0	0	0	0	0	0	0	0	0	0	0	0	0	0	0	0	0	0	0	1	S8231	'(TJA10 empty empty KED32 KCE02 NGN09 KFC10 NGJ79 NGJ19 NGJ29 NGJ09)'	4	1
3711	7	woman	70	470	1	C509	0	0	0	0	0	0	0	0	0	0	0	false	0	false	false	false	false	0	0	0	0	0	0	0	0	0	0	0	0	0	0	0	0	0	0	0	0	1	S8231	'(empty empty NGJ29 QDB05)'	3	3
2606	3	male	50	474	1	Y850	0	0	0	0	0	0	0	0	0	0	0	false	0	false	false	false	false	0	0	0	0	0	0	0	0	0	0	0	0	0	0	0	0	0	0	0	1	0	S8221	'(empty NGJ59 ZXA00 empty)'	5	3
3344	2	male	43	482	1	R998	0	0	0	0	0	0	0	0	0	0	0	true	0	true	false	false	true	0	0	0	0	0	0	0	0	0	0	1	0	0	0	0	0	0	0	0	1	0	S8221	'(empty NGK99 NGK09 ZZQ00 NGU39 NGT49 QDB05)'	5	7
4292	0	woman	30	485	1	I219	0	0	0	0	0	0	0	0	0	0	0	false	0	false	false	false	false	0	0	0	0	0	0	0	0	0	0	0	0	0	0	0	0	0	0	0	0	1	S8231	'(NGJ09 TNX30)'	1	8
1917	7	male	44	494	1	C259	0	0	0	0	0	0	0	0	0	0	0	false	0	false	false	false	false	0	0	0	0	0	0	0	0	0	0	0	0	0	0	0	0	0	0	1	0	0	S8211	'(empty NFJ69 NGJ29 NFJ19 NFJ19 ZXC20 ZXD00)'	3	2
3383	-2	woman	80	494	1	I251	0	0	0	0	0	0	0	0	0	0	0	false	0	false	false	false	false	0	0	0	0	0	0	0	0	0	0	0	0	0	0	0	0	0	0	1	0	0	S8211	'(empty empty)'	3	5
1396	2	male	61	495	1	I613	0	0	0	0	0	0	0	0	0	0	0	false	0	false	false	false	false	0	0	0	0	0	0	0	0	0	0	0	0	0	0	0	0	0	0	0	1	0	S8221	'(empty KED22 empty NGJ09 NGJ59)'	2	11
1987	5	male	64	496	1	J189	0	0	0	0	0	0	0	0	0	0	0	false	0	false	false	false	false	0	0	0	0	0	0	0	0	0	0	0	0	0	0	0	0	0	0	0	1	0	S8221	'(empty KED22 empty empty NGJ29 V9209)'	4	12
3593	3	woman	76	502	1	I64	0	0	0	0	0	0	0	0	0	0	0	false	0	false	false	false	false	0	0	0	0	0	0	0	0	0	0	0	0	0	0	0	0	0	0	0	1	0	S8221	'(UJF42 UJF42 UJD02 NGJ19 NGJ79 NGJ49 QDB00)'	3	9
3281	7	woman	70	503	1	I269	0	0	0	0	0	0	0	0	0	0	0	false	0	false	false	false	false	0	0	0	0	0	0	0	0	0	0	0	0	0	0	0	0	0	0	0	1	0	S8221	'(empty DV091 empty empty empty)'	1	12
260	6	woman	81	511	1	I5091	0	0	0	0	0	0	0	0	0	0	0	false	0	false	false	false	false	0	0	0	0	0	0	0	0	0	0	0	0	0	0	0	0	0	0	1	0	0	S8211	'(empty empty)'	3	4
844	8	male	72	514	1	I639	0	0	0	0	0	0	0	0	0	0	0	false	0	false	false	false	false	0	0	0	0	0	0	0	0	0	0	0	0	0	0	0	0	0	0	0	0	1	S8231	'(QG001 QG001 XS001 TNG33)'	3	2
4336	6	woman	50	515	1	E147	0	0	0	0	0	0	0	0	0	0	0	false	0	false	false	false	false	0	0	0	0	0	0	0	0	0	0	0	0	0	0	0	0	0	0	0	1	0	S8221	'(empty empty empty empty QDB00)'	3	7
4266	-2	male	64	526	1	I251	0	0	0	0	0	0	0	0	0	0	0	false	0	false	false	false	false	0	0	0	0	0	0	0	0	0	0	0	0	0	0	0	0	0	0	0	1	0	S8221	'(empty empty FNG05 JLC40 empty empty)'	3	12
2925	4	male	67	534	1	I5099	0	0	0	0	0	0	0	0	0	0	0	false	0	false	false	false	false	0	0	0	0	0	0	0	0	0	0	0	0	0	0	0	0	0	0	0	0	1	S8231	'(empty empty empty)'	3	7
211	4	woman	47	539	1	C56	0	0	0	0	0	0	0	0	0	0	0	false	0	false	false	false	false	0	0	0	0	0	0	0	0	0	0	0	0	0	0	0	0	0	0	0	1	0	S8221	'(JFB00 JFC10 JFK10 empty empty NGJ59)'	3	4
1024	8	male	63	539	1	X41	0	0	0	0	0	0	0	0	0	0	0	false	0	false	false	false	false	0	0	0	0	0	0	0	0	0	0	0	0	0	0	0	0	0	0	0	0	1	S8231	'(empty empty empty AA014 AD005 AF020 AK044 AD018 empty NHJ89)'	3	9
2191	8	male	45	545	1	X590	0	0	0	0	0	0	0	0	0	0	0	false	0	false	false	false	false	0	0	0	0	0	0	0	0	0	0	0	0	0	0	0	0	0	0	1	0	0	S8211	'(empty empty empty empty empty CGG30 empty empty empty NGJ29 empty NGJ09 NGJ29)'	3	5
832	-1	male	69	560	1	C349	0	0	0	0	0	0	0	0	0	0	0	false	0	false	false	false	false	0	0	0	0	0	0	0	0	0	0	0	0	0	0	0	0	0	0	0	1	0	S8221	'(empty empty empty GAA10 NGJ49 TNX30)'	5	6
3069	7	male	58	561	1	C61	0	1	1	0	0	1	0	0	0	0	0	false	0	false	false	false	false	0	0	0	0	0	0	0	0	0	0	0	0	0	0	0	0	0	0	0	1	0	S8221	'(empty empty empty empty DR029 NFQ19 DR029 DR029 DR029 PEH30 PEH30 NGJ09 NGJ59)'	3	7
2349	0	woman	64	570	1	G122	0	0	0	0	0	0	0	0	0	0	0	false	0	false	false	false	false	0	0	0	0	0	0	0	0	0	0	0	0	0	0	0	0	0	0	1	0	0	S8211	'(empty empty empty)'	3	9
4250	-2	woman	73	573	1	I219	0	0	0	0	0	0	0	0	0	0	0	false	0	false	false	false	false	0	0	0	0	0	0	0	0	0	0	0	0	0	0	0	0	0	0	1	1	0	S8211	'(empty empty empty empty empty empty NGU39 NGJ19 NGJ29 QDB99 QDB10 QDB10 QDB10 QDE35 NGL29)'	3	8
2171	1	woman	85	574	1	I5099	0	0	0	0	0	0	0	0	0	0	0	false	0	false	false	false	false	0	0	0	0	0	0	0	0	0	0	0	0	0	0	0	0	0	0	0	1	0	S8221	'(NGJ09 TNX30)'	3	4
2506	7	woman	81	635	1	I709	0	0	0	0	0	0	0	0	0	0	0	false	0	false	false	false	false	0	0	0	0	0	0	0	0	0	0	0	0	0	0	0	0	0	0	0	0	1	S8231	'(empty empty empty empty NHJ19 NHJ69 empty)'	3	5
1138	1	woman	79	642	1	I619	0	0	0	0	0	0	0	0	0	0	0	false	0	false	false	false	false	0	0	0	0	0	0	0	0	0	0	0	0	0	0	0	0	0	0	0	0	1	S8231	'(empty empty NGU39 NGJ29 NGJ09)'	3	2
2800	6	male	57	642	1	I639	0	0	0	0	0	0	0	0	0	0	0	false	0	false	false	false	false	0	0	0	0	0	0	0	0	0	0	0	0	0	0	0	0	0	0	0	0	1	S8231	'(empty NGJ69 NGJ19)'	3	4
3076	8	male	28	642	1	R990	0	0	0	0	0	0	0	0	0	0	0	true	0	true	true	false	true	0	0	0	0	0	0	0	0	0	0	0	0	0	1	0	0	0	1	1	0	0	S8211	'(NHL39 NGT19 QDG20 ZZQ30 ZZA00 QDB05 NGN09 NGS29 DV028 NGK19 NGS59 NGW69 NGJ29 QDB05)'	5	2
1403	-1	woman	73	647	1	I5091	0	0	0	0	0	0	0	0	0	0	0	false	0	false	false	false	false	0	0	0	0	0	0	0	0	0	0	0	0	0	0	0	0	0	0	0	0	1	S8231	'(empty empty empty NGT49 empty empty NGJ29)'	3	2
799	7	woman	72	658	1	I350	0	0	0	0	0	0	0	0	0	0	0	false	0	false	false	false	false	0	0	0	0	0	0	0	0	0	0	0	0	0	0	0	0	0	0	0	0	1	S8231	'(DG001 AA024 empty empty)'	1	2
3885	3	woman	82	663	1	J189	0	0	0	0	0	0	0	0	0	0	0	false	0	false	false	false	false	0	0	0	0	0	0	0	0	0	0	0	0	0	0	0	0	0	0	0	0	1	S8231	'(empty NGJ09 NGJ59 NGJ09)'	3	4
3901	7	woman	60	670	1	D432	0	0	0	0	0	0	0	0	0	0	0	false	0	false	false	false	false	0	0	0	0	0	0	0	0	0	0	0	0	0	0	0	0	0	0	1	0	1	S8211	'(empty empty UGC12 DG002 AP051 TJD10 DT024 DT016 NFJ69 NHJ09 TNH33 ZXA05 ZXD00)'	1	10
1993	9	male	75	671	1	R999	0	0	0	0	0	0	0	0	0	0	0	false	0	false	false	false	false	0	0	0	0	0	0	0	0	0	0	0	0	0	0	0	0	0	0	1	0	0	S8211	'(empty empty NGJ09 NGJ69)'	3	1
3102	0	male	49	673	1	I219	0	0	0	0	0	0	0	0	0	0	0	false	0	false	false	false	false	0	0	0	0	0	0	0	0	0	0	0	0	0	0	0	0	0	0	0	1	0	S8221	'(empty NGJ09 TNX30 NGJ59)'	1	2
1348	-2	woman	77	703	1	F031	0	0	0	0	0	0	0	0	0	0	0	false	0	false	false	false	false	0	0	0	0	0	0	0	0	0	0	0	0	0	0	0	0	0	0	0	0	1	S8231	'(empty NGJ09 NGJ29)'	1	2
1475	7	male	61	715	1	C439	0	0	0	0	0	0	0	0	0	0	0	true	0	false	false	true	false	0	0	0	0	0	0	0	0	0	0	0	0	0	0	0	0	1	0	0	1	0	S8221	'(PM003 QT005 TKC20 QDE10 QDE10 PJD45 QDE10 ZZR00 KCE02 KDH62 NFN09 NGJ09 NGJ29 empty NCJ19 NCJ69 NGJ09 NGJ29)'	5	3
58	-2	woman	66	734	1	I713	0	0	0	0	0	0	0	0	0	0	0	false	0	false	false	false	false	0	0	0	0	0	0	0	0	0	0	0	0	0	0	0	0	0	0	0	0	1	S8231	'(empty empty empty)'	3	6
894	-2	male	61	737	1	I213	0	0	0	0	0	0	0	0	0	0	0	false	0	false	false	false	false	0	0	0	0	0	0	0	0	0	0	0	0	0	0	0	0	0	0	0	0	1	S8231	'(empty empty empty empty)'	5	12
2458	3	male	24	742	1	F102	0	0	0	0	0	0	0	0	0	0	0	false	0	false	false	false	false	0	0	0	0	0	0	0	0	0	0	0	0	0	0	0	0	0	0	0	0	1	S8231	'(empty NGN09 NGJ29 NGJ09)'	3	6
2707	0	male	39	751	1	I251	0	0	0	0	0	0	0	0	0	0	0	false	0	false	false	false	false	0	0	0	0	0	0	0	0	0	0	0	0	0	0	0	0	0	0	0	1	0	S8221	'(NGJ19 NGJ59 QDB10)'	1	6
2825	7	woman	68	762	1	E146	0	0	0	0	0	0	0	0	0	0	0	false	0	false	false	false	false	0	0	0	0	0	0	0	0	0	0	0	0	0	0	0	0	0	0	0	1	0	S8221	'(NGU39 NGJ99 TNG31 NGJ29)'	3	5
868	7	male	23	774	1	X70	0	0	0	0	0	0	0	0	0	0	0	false	0	false	false	false	false	0	0	0	0	0	0	0	0	0	0	0	0	0	0	0	0	0	0	0	0	1	S8231	'(AU011 XT001 AA052 XS009 empty NGU39 QDB00 QDB05 ZXA00 ZXA05)'	5	10
4357	-1	woman	65	777	1	C249	0	0	0	0	0	0	0	0	0	0	0	false	0	false	false	false	false	0	0	0	0	0	0	0	0	0	0	0	0	0	0	0	0	0	0	0	1	0	S8221	'(empty UJD02 UJD02 empty empty NGJ59)'	3	2
2271	7	male	54	778	1	I251	0	0	0	0	0	0	0	0	0	0	0	false	0	false	false	false	false	0	0	0	0	0	0	0	0	0	0	0	0	0	0	0	0	0	0	0	1	0	S8221	'(TKC20 AV076 AF063 AF063 empty empty empty NGJ09 NGJ59)'	3	4
3826	-1	male	68	778	1	I259	0	0	0	0	0	0	0	0	0	0	0	false	0	false	false	false	false	0	0	0	0	0	0	0	0	0	0	0	0	0	0	0	0	0	0	0	0	1	S8231	'(empty JFK00 JFA00 V9209 empty JDA60 JAK00 JDA60 JWA00 TNX25 TNX30)'	2	8
694	-1	woman	66	788	1	N289	0	0	0	0	0	0	0	0	0	0	0	false	0	false	false	false	false	0	0	0	0	0	0	0	0	0	0	0	0	0	0	0	0	0	0	0	1	0	S8221	'(empty empty LCA13 ZXD10 empty empty empty NHJ29)'	3	6
1562	-1	woman	56	792	1	C349	0	0	0	0	0	0	0	0	0	0	0	false	0	false	false	false	false	0	0	0	0	0	0	0	0	0	0	0	0	0	0	0	0	0	0	0	0	1	S8231	'(empty empty AAB00 AAA00 empty empty NGJ69)'	3	9
3881	-1	male	26	814	1	X00	0	0	0	0	0	0	0	0	0	0	0	false	0	false	false	false	false	0	0	0	0	0	0	0	0	0	0	0	0	0	0	0	0	0	0	0	0	1	S8231	'(NGJ09 NGJ29 NHJ19 NHJ69)'	5	5
1980	1	woman	62	820	1	M0699	0	0	0	0	0	0	0	0	0	0	0	false	0	false	false	false	false	0	0	0	0	0	0	0	0	0	0	0	0	0	0	0	0	0	0	0	1	0	S8221	'(empty empty empty V9122 empty V9122 empty empty GBB00 JDB00 UDQ12 UDQ12 empty)'	3	8
4341	3	woman	74	844	1	I219	0	0	0	0	0	0	0	0	0	0	0	false	0	false	false	false	false	0	0	0	0	0	0	0	0	0	0	0	0	0	0	0	0	0	0	0	1	0	S8221	'(empty)'	3	10
1092	6	male	46	847	1	X45	0	0	0	0	0	0	0	0	0	0	0	false	0	false	false	false	false	0	0	0	0	0	0	0	0	0	0	0	0	0	0	0	0	0	0	0	1	0	S8221	'(empty NGJ19 NGJ29 NDJ09 NDJ59 TND32 TND32)'	1	1
1345	6	male	23	851	1	I219	0	0	0	0	0	0	0	0	0	0	0	false	0	false	false	false	false	0	0	0	0	0	0	0	0	0	0	0	0	0	0	0	0	0	0	0	1	0	S8221	'(NCA12 NCU49 ZXA00 empty NCJ29 NGJ29 NDJ49)'	1	6
979	-1	male	60	858	1	I259	0	0	0	0	0	0	0	0	0	0	0	false	0	false	false	false	false	0	0	0	0	0	0	0	0	0	0	0	0	0	0	0	0	0	0	0	1	0	S8221	'(NGT49 empty)'	1	11
2961	1	male	60	869	1	I219	0	0	0	0	0	0	0	0	0	0	0	false	0	false	false	false	false	0	0	0	0	0	0	0	0	0	0	0	0	0	0	0	0	0	0	0	1	0	S8221	'(NGJ59)'	1	8
126	0	woman	68	885	1	J189	0	0	0	0	0	0	0	0	0	0	0	false	0	false	false	false	false	0	0	0	0	0	0	0	0	0	0	0	0	0	0	0	0	0	0	0	0	1	S8231	'(empty empty NGJ29 NGJ09 QDB05)'	1	5
262	0	woman	78	895	1	I48	0	0	0	0	0	0	0	0	0	0	0	false	0	false	false	false	false	0	0	0	0	0	0	0	0	0	0	0	0	0	0	0	0	0	0	0	0	1	S8231	'(empty)'	3	10
212	3	male	46	897	1	W06	0	0	0	0	0	0	0	0	0	0	0	false	0	false	false	false	false	0	0	0	0	0	0	0	0	0	0	0	0	0	0	0	0	0	0	1	0	0	S8211	'(empty empty empty empty empty empty empty empty empty empty empty empty)'	3	10
4304	5	male	47	918	1	I251	0	0	0	0	0	0	0	0	0	0	0	false	0	false	false	false	false	0	0	0	0	0	0	0	0	0	0	0	0	0	0	0	0	0	0	0	1	0	S8221	'(NGJ29 NGN09 NGU49 NGU49 NGJ59 NGJ59 NGJ29 NGJ89 NGJ09 NGU39 NDJ49 NDJ09 QDA10 V9209)'	5	3
3022	0	woman	34	923	1	F102	0	0	0	0	0	0	0	0	0	0	0	false	0	false	false	false	false	0	0	0	0	0	0	0	0	0	0	0	0	0	0	0	0	0	0	0	1	0	S8221	'(NHJ89 NGJ09)'	5	5
2893	-2	male	10	944	1	X78	0	0	0	0	0	0	0	0	0	0	0	false	0	false	false	false	false	0	0	0	0	0	0	0	0	0	0	0	0	0	0	0	0	0	0	0	1	0	S8221	'(empty QBB99 NGJ19 NGJ29 NGN09 NGJ09)'	5	9
2931	3	male	3	951	1	X80	0	0	0	0	0	0	0	0	0	0	0	false	0	false	false	false	false	0	0	0	0	0	0	0	0	0	0	0	0	0	0	0	0	0	0	1	0	0	S8211	'(empty empty empty AAA27 AAA99 GBB00 NFJ59 QDB05 NDJ09 NBJ19 NCH09)'	5	9
2344	5	woman	78	953	1	R54	0	0	0	0	0	0	0	0	0	0	0	false	0	false	false	false	false	0	0	0	0	0	0	0	0	0	0	0	0	0	0	0	0	0	0	0	0	1	S8231	'(empty DG001 empty empty)'	2	4
2478	4	male	62	958	1	I110	0	0	0	0	0	0	0	0	0	0	0	false	0	false	false	false	false	0	0	0	0	0	0	0	0	0	0	0	0	0	0	0	0	0	0	0	1	0	S8221	'(NGJ29 QDB05 UJD02)'	1	7
2132	5	woman	75	961	1	X590	0	0	0	0	0	0	0	0	0	0	0	false	0	false	false	false	false	0	0	0	0	0	0	0	0	0	0	0	0	0	0	0	0	0	0	0	1	0	S8221	'(empty empty NGJ59)'	3	10
623	6	woman	71	963	1	I5091	0	0	0	0	0	0	0	0	0	0	0	false	0	false	false	false	false	0	0	0	0	0	0	0	0	0	0	0	0	0	0	0	0	0	0	1	0	0	S8211	'(empty empty empty empty UJD02 DT019 empty FPE30 empty empty empty NGJ69 NGJ19 NGJ69 NGJ19)'	3	11
1873	-2	woman	58	972	1	C259	0	0	0	0	0	0	0	0	0	0	0	false	0	false	false	false	false	0	0	0	0	0	0	0	0	0	0	0	0	0	0	0	0	0	0	0	1	0	S8221	'(empty empty NGJ19 NGJ59 NGJ29 NHJ19 NHJ29)'	3	2
1323	3	woman	68	974	1	I219	0	0	0	0	0	0	0	0	0	0	0	false	0	false	false	false	false	0	0	0	0	0	0	0	0	0	0	0	0	0	0	0	0	0	0	0	1	0	S8221	'(empty empty empty NGJ09 NGJ09 QDB00)'	3	10
2155	1	woman	75	974	1	J189	0	0	0	0	0	0	0	0	0	0	0	false	0	false	false	false	false	0	0	0	0	0	0	0	0	0	0	0	0	0	0	0	0	0	0	0	0	1	S8231	'(empty)'	3	5
76	4	woman	45	1011	1	K632	0	0	0	0	0	0	0	0	0	0	0	false	0	false	false	false	false	0	0	0	0	0	0	0	0	0	0	0	0	0	0	0	0	0	0	0	0	1	S8231	'(QBA10 XXA00 empty empty empty empty UJD02 JFB60 empty NGJ09 ZXA05 empty)'	3	5
1231	7	male	57	1013	1	I259	0	0	0	0	0	0	0	0	0	0	0	false	0	false	false	false	false	0	0	0	0	0	0	0	0	0	0	0	0	0	0	0	0	0	0	1	0	0	S8211	'(NGJ59)'	2	1
2138	2	woman	68	1023	1	L984	0	0	0	0	0	0	0	0	0	0	0	false	0	false	false	false	false	0	0	0	0	0	0	0	0	0	0	0	0	0	0	0	0	0	0	0	1	0	S8221	'(empty CJE20 empty)'	1	2
1377	4	woman	53	1032	1	J180	0	0	0	0	0	0	0	0	0	0	0	false	0	false	false	false	false	0	0	0	0	0	0	0	0	0	0	0	0	0	0	0	0	0	0	1	0	0	S8211	'(empty empty NGJ19 NGJ69)'	3	10
3184	0	woman	55	1035	1	J448	0	0	0	0	0	0	0	0	0	0	0	false	0	false	false	false	false	0	0	0	0	0	0	0	0	0	0	0	0	0	0	0	0	0	0	0	1	0	S8221	'(NGU39 empty empty)'	3	2
3472	4	woman	67	1077	1	F019	0	0	0	0	0	0	0	0	0	0	0	false	0	false	false	false	false	0	0	0	0	0	0	0	0	0	0	0	0	0	0	0	0	0	0	0	0	1	S8231	'(empty empty)'	3	7
1643	5	woman	58	1078	1	K922	0	0	0	0	0	0	0	0	0	0	0	false	0	false	false	false	false	0	0	0	0	0	0	0	0	0	0	0	0	0	0	0	0	0	0	0	1	0	S8221	'(AG041 DR029 V9209 NGJ29 QDB05 NGJ09 NGS39 NGJ29 NGJ09)'	3	6
3132	7	woman	56	1088	1	C349	0	0	0	0	0	0	0	0	0	0	0	false	0	false	false	false	false	0	0	0	0	0	0	0	0	0	0	0	0	0	0	0	0	0	0	0	1	0	S8221	'(AA011 AF053 AF053 empty DT016 AF053 DT016 UGC12 AG053 XT001 NGJ59 NGK59 NGU49 NGJ59 NGJ09)'	2	3
3858	6	male	35	1103	1	I517	0	0	0	0	0	0	0	0	0	0	0	false	0	false	false	false	false	0	0	0	0	0	0	0	0	0	0	0	0	0	0	0	0	0	0	0	1	0	S8221	'(NGA22 NGU49 empty empty NGJ19 NGJ69)'	3	7
3721	3	male	60	1110	1	C259	0	0	0	0	0	0	0	0	0	0	0	false	0	false	false	false	false	0	0	0	0	0	0	0	0	0	0	0	0	0	0	0	0	0	0	0	0	1	S8231	'(empty empty empty empty empty empty empty empty NGJ69)'	3	1
1090	1	woman	66	1124	1	G09	0	0	0	0	0	0	0	0	0	0	0	false	0	false	false	false	false	0	0	0	0	0	0	0	0	0	0	0	0	0	0	0	0	0	0	0	0	1	S8231	'(QBG00 empty empty)'	1	6
2610	7	woman	72	1127	1	F039	0	0	0	0	0	1	0	0	0	0	0	false	0	false	false	false	false	0	0	0	0	0	0	0	0	0	0	0	0	0	0	0	0	0	0	0	0	1	S8231	'(empty empty empty NFQ19 PEE10 PEE11 PEF11 PEF10 DT019 empty)'	2	7
3769	7	male	45	1129	1	C139	0	0	0	0	0	0	0	0	0	0	0	false	0	false	false	false	false	0	0	0	0	0	0	0	0	0	0	0	0	0	0	0	0	0	0	0	0	1	S8231	'(AF063 DT016 DG023 DT016 DT016 JDB10 UEN15 AP029 AF012 AG031 AF020 XS007 empty)'	3	5
1254	2	woman	35	1144	1	I64	0	0	0	0	0	0	0	0	0	0	0	false	0	false	false	false	false	0	0	0	0	0	0	0	0	0	0	0	0	0	0	0	0	0	0	0	0	1	S8231	'(empty empty empty)'	3	7
513	-1	male	58	1145	1	I219	0	0	0	0	0	0	0	0	0	0	0	false	0	false	false	false	false	0	0	0	0	0	0	0	0	0	0	0	0	0	0	0	0	0	0	1	0	0	S8211	'(empty empty)'	3	8
4100	2	woman	64	1162	1	I48	0	0	0	0	0	0	0	0	0	0	0	false	0	false	false	false	false	0	0	0	0	0	0	0	0	0	0	0	0	0	0	0	0	0	0	0	0	1	S8231	'(NGK99)'	2	6
3084	7	woman	68	1163	1	I64	0	0	0	0	0	0	0	0	0	0	0	false	0	false	false	false	false	0	0	0	0	0	0	0	0	0	0	0	0	0	0	0	0	0	0	0	0	1	S8231	'(QD002 QD016 empty NHS09 NGJ29)'	3	2
2290	2	woman	75	1164	1	J182	0	1	1	0	0	0	0	1	0	0	0	false	0	false	false	false	false	0	0	0	0	0	0	0	0	0	0	0	0	0	0	0	0	0	0	0	1	0	S8221	'(empty empty NGQ09 ZXA05 empty empty empty empty NGQ09 empty empty)'	3	7
3131	6	woman	59	1167	1	I639	0	0	0	0	0	0	0	0	0	0	0	false	0	false	false	false	false	0	0	0	0	0	0	0	0	0	0	0	0	0	0	0	0	0	0	1	0	0	S8211	'(empty empty SS108 empty empty empty NGJ69 TNG32 TNG32 NDJ09 TND32)'	3	3
4051	0	woman	36	1171	1	F102	0	0	0	0	0	0	0	0	0	0	0	false	0	false	false	false	false	0	0	0	0	0	0	0	0	0	0	0	0	0	0	0	0	0	0	0	0	1	S8231	'(empty NFJ89 empty empty TJJ00 TJJ00 NGK99 empty NCJ69 NGJ89 NGJ09 NHJ09 NHJ69)'	5	10
1666	4	male	29	1173	1	V239	0	0	0	0	0	0	0	0	0	0	0	true	1	false	true	false	false	0	0	0	0	0	0	0	0	0	0	0	0	0	0	0	0	0	1	0	0	1	S8231	'(NHJ19 NHJ69 NHJ79 NHJ29 ZZA00)'	4	10
65	5	male	2	1177	1	X44	0	0	0	0	0	0	0	0	0	0	0	false	0	false	false	false	false	0	0	0	0	0	0	0	0	0	0	0	0	0	0	0	0	0	0	0	1	1	S8221	'(empty empty empty NGU49 NGJ59 empty QDB05 NEJ69 NES99 NEW69 NFS39 NES99 NEW69 NEW69 QDG30 GAA10 ZXA10 NGJ29 QDB05 TNF40 V9122 V9201 V9127 V9576 V9209 V9211 PDT30)'	5	1
1648	1	male	59	1184	1	Y848	0	0	0	0	0	0	0	0	0	0	0	false	0	false	false	false	false	0	0	0	0	0	0	0	0	0	0	0	0	0	0	0	0	0	0	0	1	0	S8221	'(UGC12 NGJ59 NGJ09)'	3	6
1796	4	male	34	1191	1	I609	0	0	0	0	0	0	0	0	0	0	0	false	0	false	false	false	false	0	0	0	0	0	0	0	0	0	0	0	0	0	0	0	0	0	0	0	0	1	S8231	'(empty AAL10 AAF00 AAF00 GBB00 UGC12 empty QDB05 empty QCG20 QDG20 QCB10 QDB10 QCB10 QDB10 QCB10 QDB10 QCB10 QDB10 QCB10 QCB05 NFM09 empty NGJ59 NGM09 QDG30 QDG30)'	1	2
3228	6	woman	79	1191	1	F039	0	0	0	0	0	0	0	0	0	0	0	false	0	false	false	false	false	0	0	0	0	0	0	0	0	0	0	0	0	0	0	0	0	0	0	0	0	1	S8231	'(DG015 AF063 empty empty)'	3	9
1223	-2	male	68	1196	1	F019	0	0	0	0	0	0	0	0	0	0	0	false	0	false	false	false	false	0	0	0	0	0	0	0	0	0	0	0	0	0	0	0	0	0	0	0	1	0	S8221	'(empty empty empty NGJ29)'	1	1
4141	2	woman	46	1214	1	I709	0	0	0	0	0	0	0	0	0	0	0	true	1	false	true	false	false	0	0	0	0	0	0	0	0	0	0	0	0	0	0	0	0	0	1	0	1	0	S8221	'(empty empty empty empty empty empty empty empty empty empty empty empty empty empty empty empty empty NGU39 QDB05 QDB10 QDB05 ZZA00 NGA02 NGJ29)'	3	7
1200	4	woman	71	1215	1	J189	0	0	0	0	0	0	0	0	0	0	0	false	0	false	false	false	false	0	0	0	0	0	0	0	0	0	0	0	0	0	0	0	0	0	0	0	1	0	S8221	'(empty empty NGJ09 NGJ89)'	3	8
770	1	male	36	1224	1	X70	0	1	1	0	1	0	0	0	0	0	0	true	0	false	true	true	false	0	0	0	1	0	0	0	0	0	0	0	0	0	0	0	0	0	1	1	0	0	S8211	'(NGQ19 NGN09 NGN09 NGJ29 NHJ29 NGS29 NGS29 NGN09 NGU49 NGJ29 QDB05 ZZR30 ZZA00 NGJ69 NGJ19)'	1	9
13	6	male	55	1225	1	I219	0	0	0	0	0	0	0	0	0	0	0	false	0	false	false	false	false	0	0	0	0	0	0	0	0	0	0	0	0	0	0	0	0	0	0	0	1	0	S8221	'(NGJ19 NGJ69)'	3	10
898	2	woman	78	1225	1	R54	0	0	0	0	0	0	0	0	0	0	0	false	0	false	false	false	false	0	0	0	0	0	0	0	0	0	0	0	0	0	0	0	0	0	0	1	0	0	S8211	'(empty V9209 empty empty empty empty)'	3	3
808	-2	male	69	1238	1	F031	0	0	0	0	0	0	0	0	0	0	0	false	0	false	false	false	false	0	0	0	0	0	0	0	0	0	0	0	0	0	0	0	0	0	0	0	1	0	S8221	'(KCA00 empty empty NGJ29 QCB00)'	1	3
2272	-1	male	28	1247	1	X93	0	0	0	0	0	0	0	0	0	0	0	false	0	false	false	false	false	0	0	0	0	0	0	0	0	0	0	0	0	0	0	0	0	0	0	0	0	1	S8231	'(NFU49 empty empty NGJ59 NGJ29)'	5	6
566	1	woman	66	1253	1	J189	0	0	0	0	0	0	0	0	0	0	0	false	0	false	false	false	false	0	0	0	0	0	0	0	0	0	0	0	0	0	0	0	0	0	0	1	0	0	S8211	'(V9209 empty V9512 V9208 empty empty empty empty QDB05)'	3	6
2302	0	woman	66	1269	1	F031	0	0	0	0	0	0	0	0	0	0	0	false	0	false	false	false	false	0	0	0	0	0	0	0	0	0	0	0	0	0	0	0	0	0	0	1	0	0	S8211	'(NFJ89 NFJ09 NFJ49 NGJ69 NGJ19 NGJ19 NGJ69)'	3	10
3734	4	woman	69	1269	1	G309	0	0	0	0	0	0	0	0	0	0	0	false	0	false	false	false	false	0	0	0	0	0	0	0	0	0	0	0	0	0	0	0	0	0	0	1	0	0	S8211	'(empty empty NEJ09 NEJ29 NEJ79)'	5	2
3013	1	woman	72	1277	1	I110	0	0	0	0	0	0	0	0	0	0	0	false	0	false	false	false	false	0	0	0	0	0	0	0	0	0	0	0	0	0	0	0	0	0	0	1	0	0	S8211	'(empty empty empty empty empty empty)'	3	12
2433	-1	woman	54	1285	1	I698	0	0	0	0	0	0	0	0	0	0	0	false	0	false	false	false	false	0	0	0	0	0	0	0	0	0	0	0	0	0	0	0	0	0	0	1	0	0	S8211	'(empty empty empty empty empty empty empty empty empty empty empty empty empty empty)'	3	5
867	1	male	37	1293	1	W23	0	0	0	0	0	0	0	0	0	0	0	false	0	false	false	false	false	0	0	0	0	0	0	0	0	0	0	0	0	0	0	0	0	0	0	0	0	1	S8231	'(empty empty empty empty empty empty empty NGJ09 NGJ29)'	3	2
2096	4	male	59	1295	1	I132	0	1	1	0	1	0	0	0	0	0	0	false	0	false	false	false	false	0	0	0	0	0	0	0	0	0	0	0	0	0	0	0	0	0	0	0	1	0	S8221	'(AF020 AF020 empty empty empty DT016 DT016 DT016 DT016 DT016 empty empty empty empty empty empty V9576 empty TQW99 empty empty empty empty empty V9425 XPX99 empty NGQ29 QDB05 QDB05 QDB05 NGK19 QDB05 NGQ19 NGJ29 NGJ19 QDB05)'	3	7
1823	5	woman	42	1306	1	G711	0	0	0	0	0	0	0	0	0	0	0	false	0	false	false	false	false	0	0	0	0	0	0	0	0	0	0	0	0	0	0	0	0	0	0	0	0	1	S8231	'(DG021 DG010 DG012 AG040 DG024 AF063 DT016 GAA10 AF063 AP029 TJW99 empty empty JAH00 JMA10 JBA00 AP051 SP299 DA002 AF063 AF021 GAA10 DR029 GBB00 DG021 TNH33)'	3	6
3302	-1	male	41	1307	1	F101	0	0	0	0	0	0	0	0	0	0	0	false	0	false	false	false	false	0	0	0	0	0	0	0	0	0	0	0	0	0	0	0	0	0	0	1	0	0	S8211	'(V9127 V9201 TKC20 V9233 empty empty empty empty empty empty empty empty empty empty empty empty empty empty empty empty empty TGA30 GAA10 TGA10 empty empty)'	1	7
3334	3	male	55	1308	1	I429	0	0	0	0	0	0	0	0	0	0	0	false	0	false	false	false	false	0	0	0	0	0	0	0	0	0	0	0	0	0	0	0	0	0	0	0	1	0	S8221	'(empty NGT49 ZXA00 QDG30 NGJ09)'	5	1
3476	0	male	63	1314	1	I251	0	0	0	0	0	0	0	0	0	0	0	false	0	false	false	false	false	0	0	0	0	0	0	0	0	0	0	0	0	0	0	0	0	0	0	0	1	0	S8221	'(empty empty empty empty empty empty empty empty empty empty empty empty NGU39 ZXD00 NGS99 NGJ09 NGJ29 QDB99)'	3	4
1729	0	male	67	1323	1	C61	0	0	0	0	0	0	0	0	0	0	0	false	0	false	false	false	false	0	0	0	0	0	0	0	0	0	0	0	0	0	0	0	0	0	0	1	0	0	S8211	'(V9209 TKA10 empty empty empty)'	5	3
3960	-1	woman	56	1326	1	I619	0	0	0	0	0	0	0	0	0	0	0	false	0	false	false	false	false	0	0	0	0	0	0	0	0	0	0	0	0	0	0	0	0	0	0	0	1	0	S8221	'(empty NGU39 NGU39 NGJ29 NGW79 NGJ29 NGJ09)'	4	4
718	1	woman	70	1329	1	J189	0	0	0	0	0	0	0	0	0	0	0	false	0	false	false	false	false	0	0	0	0	0	0	0	0	0	0	0	0	0	0	0	0	0	0	1	0	0	S8211	'(V9526 empty empty V9209 empty V9526 V9209 empty empty)'	4	1
1927	4	male	46	1343	1	I219	0	0	0	0	0	0	0	0	0	0	0	false	0	false	false	false	false	0	0	0	0	0	0	0	0	0	0	0	0	0	0	0	0	0	0	0	0	1	S8231	'(NGJ59 QDG30)'	3	8
667	1	woman	68	1345	1	C64	0	0	0	0	0	0	0	0	0	0	0	false	0	false	false	false	false	0	0	0	0	0	0	0	0	0	0	0	0	0	0	0	0	0	0	0	0	1	S8231	'(empty FPE00 NFJ09 NFJ59 empty UJD02 empty empty empty empty empty empty)'	3	7
1962	-1	woman	74	1356	1	I64	0	0	0	0	0	0	0	0	0	0	0	false	0	false	false	false	false	0	0	0	0	0	0	0	0	0	0	0	0	0	0	0	0	0	0	0	1	0	S8221	'(QDG00 QDG00 ZXA00 NGJ59 NGJ09 QDB00 QDB00 QDB00 ZZA50)'	3	9
1174	-1	male	64	1377	1	I259	0	0	0	0	0	0	0	0	0	0	0	false	0	false	false	false	false	0	0	0	0	0	0	0	0	0	0	0	0	0	0	0	0	0	0	0	1	0	S8221	'(empty empty empty empty empty empty empty empty empty NGJ09 NGJ29 ZXH40 QDB00)'	5	2
4103	5	male	21	1378	1	W19	0	0	0	0	0	0	0	0	0	0	0	false	0	false	false	false	false	0	0	0	0	0	0	0	0	0	0	0	0	0	0	0	0	0	0	0	0	1	S8231	'(AU009 DT026 AF022 empty AV018 XV008 empty NGJ69 NGJ19 TNG32)'	4	10
2688	2	male	51	1392	1	X82	0	0	0	0	0	0	0	0	0	0	0	false	0	false	false	false	false	0	0	0	0	0	0	0	0	0	0	0	0	0	0	0	0	0	0	0	1	0	S8221	'(empty empty XPX99 empty PGH40 PET10 GBB00 NGJ69 NGJ19 NGJ49 NGJ49 NGJ59 NGJ19 NFJ69 NFJ09 NGL49 V9209)'	5	3
1504	3	woman	68	1400	1	I5091	0	0	0	0	0	0	0	0	0	0	0	false	0	false	false	false	false	0	0	0	0	0	0	0	0	0	0	0	0	0	0	0	0	0	0	0	1	0	S8221	'(NCJ49 NCJ19 NFJ89 NFJ09 empty NBJ69 NBJ19 empty NGJ09 NGJ59 NHJ19 NHJ49)'	4	8
556	1	woman	65	1406	1	K920	0	0	0	0	0	0	0	0	0	0	0	false	0	false	false	false	false	0	0	0	0	0	0	0	0	0	0	0	0	0	0	0	0	0	0	0	1	0	S8221	'(empty empty NGJ59 NGJ19 NGN09 NGJ09 QDB05 empty QDB05 NGJ29 QDB10 QDB05)'	5	6
3242	3	woman	75	1409	1	I259	0	0	0	0	0	0	0	0	0	0	0	false	0	false	false	false	false	0	0	0	0	0	0	0	0	0	0	0	0	0	0	0	0	0	0	0	1	0	S8221	'(empty NGJ29 NGJ19)'	3	3
283	6	male	60	1412	1	J440	0	0	0	0	0	0	0	0	0	0	0	false	0	false	false	false	false	0	0	0	0	0	0	0	0	0	0	0	0	0	0	0	0	0	0	0	1	0	S8221	'(DG023 NGJ59 NBJ09 DR029 empty empty PAF20 PWE00 PWD00 empty AF020 AP073 empty empty FNG05 AF020 AV043 PHB10 empty UKC02 TKC20 empty NGJ59 NGJ09 TNG33)'	3	1
1934	3	woman	50	1427	1	R999	0	0	0	0	0	0	0	0	0	0	0	false	0	false	false	false	false	0	0	0	0	0	0	0	0	0	0	0	0	0	0	0	0	0	0	1	0	0	S8211	'(UJD02 empty empty empty)'	3	11
2224	3	male	58	1435	1	Y869	0	0	0	0	0	0	0	0	0	0	0	false	0	false	false	false	false	0	0	0	0	0	0	0	0	0	0	0	0	0	0	0	0	0	0	1	0	0	S8211	'(empty NFJ79 ZXH40 empty empty)'	3	5
1027	-2	male	39	1457	1	I252	0	0	0	0	0	0	0	0	0	0	0	false	0	false	false	false	false	0	0	0	0	0	0	0	0	0	0	0	0	0	0	0	0	0	0	0	1	0	S8221	'(empty empty V9241 V9526 empty NHJ09 TNX25 NHJ29 NGJ09 NHJ69)'	1	4
426	3	woman	66	1494	1	N390	0	0	0	0	0	0	0	0	0	0	0	false	0	false	false	false	false	0	0	0	0	0	0	0	0	0	0	0	0	0	0	0	0	0	0	1	0	0	S8211	'(empty empty empty empty empty empty empty empty)'	4	11
3785	3	woman	69	1504	1	I48	0	0	0	0	0	0	0	0	0	0	0	false	0	false	false	false	false	0	0	0	0	0	0	0	0	0	0	0	0	0	0	0	0	0	0	0	0	1	S8231	'(empty AF063 DR029 NHU39 empty NGJ29 NGJ09 QDB05)'	1	10
2661	-2	male	63	1514	1	I219	0	0	0	0	0	0	0	0	0	0	0	false	0	false	false	false	false	0	0	0	0	0	0	0	0	0	0	0	0	0	0	0	0	0	0	0	1	0	S8221	'(empty V9526 TNX39)'	5	5
3382	4	male	47	1524	1	C099	0	0	0	0	0	0	0	0	0	0	0	false	0	false	false	false	false	0	0	0	0	0	0	0	0	0	0	0	0	0	0	0	0	0	0	0	1	0	S8221	'(UJF42 NGU39 NGK09 NGN19 NFN09 NGJ99 NGU49 NGS59 empty QDB05 NGJ59 NCJ69 empty)'	3	8
1801	5	male	71	1539	1	C164	0	0	0	0	0	0	0	0	0	0	0	false	0	false	false	false	false	0	0	0	0	0	0	0	0	0	0	0	0	0	0	0	0	0	0	0	1	0	S8221	'(XS918 UJD02 XS910 DR029 empty XXA00 NGU39 empty NGJ19 NGJ29 empty empty empty empty NGJ29 NGJ09 QDG30 NCJ09)'	1	5
2617	-1	male	61	1546	1	I251	0	0	0	0	0	0	0	0	0	0	0	false	0	false	false	false	false	0	0	0	0	0	0	0	0	0	0	0	0	0	0	0	0	0	0	0	1	0	S8221	'(empty empty)'	5	1
2489	6	male	45	1559	1	I219	0	0	0	0	0	0	0	0	0	0	0	true	0	false	true	true	false	1	0	0	0	0	0	0	0	0	0	0	0	0	0	0	0	0	1	0	0	1	S8231	'(NGJ29 NGJ19 NGJ29 NGS99 ZZR05 ZZA00 NGW59 NGJ09 NGJ09 NGJ29)'	4	2
1211	6	woman	73	1561	1	C719	0	0	0	0	0	0	0	0	0	0	0	false	0	false	false	false	false	0	0	0	0	0	0	0	0	0	0	0	0	0	0	0	0	0	0	0	0	1	S8231	'(empty DG015 empty empty empty UJF42 empty V9503 AF020 QDB05 NGJ19 NGJ59 ZXD00 ZXC20)'	3	3
721	0	woman	77	1568	1	I219	0	0	0	0	0	0	0	0	0	0	0	false	0	false	false	false	false	0	0	0	0	0	0	0	0	0	0	0	0	0	0	0	0	0	0	0	1	0	S8221	'(NGJ19 TNX25 NGJ19 TNX25)'	3	8
1609	2	male	72	1578	1	E119	0	0	0	0	0	0	0	0	0	0	0	false	0	false	false	false	false	0	0	0	0	0	0	0	0	0	0	0	0	0	0	0	0	0	0	0	0	1	S8231	'(empty empty)'	2	8
717	-1	male	21	1597	1	C259	0	0	0	0	0	0	0	0	0	0	0	false	0	false	false	false	false	0	0	0	0	0	0	0	0	0	0	0	0	0	0	0	0	0	0	0	1	0	S8221	'(empty empty UJF32 empty NGU49 NGJ19 NGJ59 NGN09 NGU49 empty NGU49 NGJ09 NGJ59 NGN09 NGU49 empty NGJ09 NGJ59 NHJ19 NHJ89 NHJ59 NGJ09)'	5	4
3407	-2	woman	73	1606	1	I359	0	0	0	0	0	0	0	0	0	0	0	false	0	false	false	false	false	0	0	0	0	0	0	0	0	0	0	0	0	0	0	0	0	0	0	0	0	1	S8231	'(empty)'	5	12
396	-2	male	51	1617	1	C762	0	0	0	0	0	0	0	0	0	0	0	false	0	false	false	false	false	0	0	0	0	0	0	0	0	0	0	0	0	0	0	0	0	0	0	0	0	1	S8231	'(V9209 V9541 empty NGN09 ZXD00)'	1	10
1153	3	male	64	1624	1	R999	0	0	0	0	0	0	0	0	0	0	0	false	0	false	false	false	false	0	0	0	0	0	0	0	0	0	0	0	0	0	0	0	0	0	0	1	0	1	S8211	'(KCD02 empty KCD02 UKC02 empty)'	3	9
4202	1	male	60	1637	1	I219	0	0	0	0	0	0	0	0	0	0	0	false	0	false	false	false	false	0	0	0	0	0	0	0	0	0	0	0	0	0	0	0	0	0	0	0	1	0	S8221	'(empty NFJ09 NFJ89 QDB10 QDG30)'	3	12
602	3	woman	61	1644	1	I219	0	0	0	0	0	0	0	0	0	0	0	false	0	false	false	false	false	0	0	0	0	0	0	0	0	0	0	0	0	0	0	0	0	0	0	0	1	0	S8221	'(empty empty NGJ59)'	2	11
3651	0	male	34	1659	1	I251	0	0	0	0	0	0	0	0	0	0	0	false	0	false	false	false	false	0	0	0	0	0	0	0	0	0	0	0	0	0	0	0	0	0	0	0	1	0	S8221	'(NGJ09 NGJ29)'	5	11
3805	-1	woman	67	1660	1	I229	0	0	0	0	1	0	0	0	0	0	0	true	1	false	true	false	false	0	0	0	0	0	0	0	0	0	0	0	0	0	0	0	0	0	1	0	1	0	S8221	'(NGQ19 V9209 V9209 empty NHJ29 NHJ99 TNX30 QDB05 ZZA00)'	3	9
2003	1	male	48	1667	1	C64	0	0	0	0	0	0	0	0	0	0	0	true	1	false	true	false	false	0	0	0	0	0	0	0	0	0	0	0	0	0	0	0	0	0	1	0	1	0	S8221	'(empty QCG30 AWC00 QCG30 empty empty empty KAC00 empty NAG79 empty empty empty empty empty NAW99 NGJ29 NAG79 QDB05 ZZA00 NGJ29 NGH09)'	5	6
2259	-2	male	34	1671	1	I698	0	0	0	0	0	0	0	0	0	0	0	false	0	false	false	false	false	0	0	0	0	0	0	0	0	0	0	0	0	0	0	0	0	0	0	1	0	0	S8211	'(empty empty empty empty empty empty empty empty empty NGJ69 TNX30)'	5	4
4203	1	male	41	1702	1	I251	0	0	0	0	0	0	0	0	0	0	0	false	0	false	false	false	false	0	0	0	0	0	0	0	0	0	0	0	0	0	0	0	0	0	0	0	1	0	S8221	'(empty NGJ19 NGJ29 NGJ19 NGJ29)'	3	12
4381	0	male	51	1726	1	I613	0	0	0	0	0	0	0	0	0	0	0	false	0	false	false	false	false	0	0	0	0	0	0	0	0	0	0	0	0	0	0	0	0	0	0	0	0	1	S8231	'(empty GBA00 empty AAB30 V9201 AAF99 empty KED22 empty empty NGJ09 NGJ29)'	3	4
4264	1	male	60	1743	1	C349	0	1	1	0	1	0	0	0	0	0	0	true	0	false	true	true	false	0	0	0	1	0	0	0	0	0	0	0	0	0	0	0	0	0	1	0	1	0	S8221	'(empty empty empty NGQ19 NGU39 empty empty empty empty NGL19 ZZA00 ZZR30)'	3	7
3546	-1	woman	57	1769	1	I350	0	0	0	0	0	0	0	0	0	0	0	false	0	false	false	false	false	0	0	0	0	0	0	0	0	0	0	0	0	0	0	0	0	0	0	0	1	0	S8221	'(empty NGJ89)'	3	2
782	1	male	40	1772	1	I219	0	1	1	0	1	0	0	0	0	0	0	false	0	false	false	false	false	0	0	0	0	0	0	0	0	0	0	0	0	0	0	0	0	0	0	0	0	1	S8231	'(NGQ19 NGJ29 QDB99)'	5	8
4183	2	woman	74	1778	1	I5099	0	0	0	0	0	0	0	0	0	0	0	false	0	false	false	false	false	0	0	0	0	0	0	0	0	0	0	0	0	0	0	0	0	0	0	0	0	1	S8231	'(NGJ29 NGJ09)'	3	8
4232	2	male	43	1808	1	C439	0	0	0	0	0	0	0	0	0	0	0	false	0	false	false	false	false	0	0	0	0	0	0	0	0	0	0	0	0	0	0	0	0	0	0	0	1	0	S8221	'(empty empty NGJ09 NGJ59)'	5	1
176	2	male	60	1812	1	I739	0	0	0	0	0	0	0	0	0	0	0	false	0	false	false	false	false	0	0	0	0	0	0	0	0	0	0	0	0	0	0	0	0	0	0	0	0	1	S8231	'(empty KED22 XXA00 NHU39 empty)'	5	12
2679	2	male	40	1813	1	C01	0	0	0	0	0	0	0	0	0	0	0	false	0	false	false	false	false	0	0	0	0	0	0	0	0	0	0	0	0	0	0	0	0	0	0	0	1	0	S8221	'(empty UEN15 ZV031 UEN15 UGC12 UJC12 UDH02 empty empty NGJ09 NGJ29)'	3	9
1220	2	male	34	1825	1	I249	0	0	0	0	0	0	0	0	0	0	0	false	0	false	false	false	false	0	0	0	0	0	0	0	0	0	0	0	0	0	0	0	0	0	0	1	0	0	S8211	'(empty empty empty empty empty empty empty empty empty empty NGJ99)'	3	1
4162	4	male	10	1832	1	X99	0	0	0	0	0	0	0	0	0	0	0	false	0	false	false	false	false	0	0	0	0	0	0	0	0	0	0	0	0	0	0	0	0	0	0	0	0	1	S8231	'(empty NGU39 NGJ29 NGJ09 NGJ29 QDB05)'	1	10
2774	-2	woman	39	1834	1	Y11	0	0	0	0	0	0	0	0	0	0	0	false	0	false	false	false	false	0	0	0	0	0	0	0	0	0	0	0	0	0	0	0	0	0	0	0	1	0	S8221	'(empty QDA10 QDA10 ZZA50 NGL29)'	3	1
3130	2	woman	39	1838	1	X70	0	0	0	0	0	0	0	0	0	0	0	false	0	false	false	false	false	0	0	0	0	0	0	0	0	0	0	0	0	0	0	0	0	0	0	0	1	0	S8221	'(empty empty NAG79 NAJ09 NDJ69 PCT99 AV043 ZXC40 empty NGJ59)'	1	10
3676	-1	woman	67	1855	1	R53	0	0	0	0	0	0	0	0	0	0	0	false	0	false	false	false	false	0	0	0	0	0	0	0	0	0	0	0	0	0	0	0	0	0	0	1	0	0	S8211	'(empty)'	1	2
4201	5	woman	71	1871	1	C56	0	0	0	0	0	0	0	0	0	0	0	false	0	false	false	false	false	0	0	0	0	0	0	0	0	0	0	0	0	0	0	0	0	0	0	0	1	0	S8221	'(empty empty empty GD004 DR029 NFJ09 NFJ89 LCD00 LAF10 JAL30 JAK00 NGJ59 NGJ09 QDB05 QDB00)'	3	2
1947	-1	male	67	1901	1	W05	0	0	0	0	0	0	0	0	0	0	0	false	0	false	false	false	false	0	0	0	0	0	0	0	0	0	0	0	0	0	0	0	0	0	0	1	0	0	S8211	'(V9209 empty NFB19 empty NGJ09 NGJ29 NGJ79 NGJ09 NGJ29)'	5	11
3768	1	woman	40	1922	1	C509	0	0	0	0	0	0	0	0	0	0	0	false	0	false	false	false	false	0	0	0	0	0	0	0	0	0	0	0	0	0	0	0	0	0	0	0	1	0	S8221	'(NGJ09 ZXH40)'	3	1
3563	3	woman	58	1923	1	C920	0	0	0	0	0	0	0	0	0	0	0	false	0	false	false	false	false	0	0	0	0	0	0	0	0	0	0	0	0	0	0	0	0	0	0	0	1	0	S8221	'(DT016 DT019 DR029 DR038 empty NGJ49 NGU49 UJF42 empty empty TNG00 NGU49 NGJ79 NBJ59 NGJ99 NGU39 NGU49 QDB10 V9209 QDB05 NGS99 V9209 QDG20 QDB10 empty empty empty empty empty TJA20 JAH00 JMA10 NFJ29 NGJ29)'	5	3
2600	1	male	44	1933	1	I251	0	0	0	0	0	0	0	0	0	0	0	false	0	false	false	false	false	0	0	0	0	0	0	0	0	0	0	0	0	0	0	0	0	0	0	1	0	0	S8211	'(NGJ19 NGJ29 QDB00)'	3	6
1931	4	woman	70	1952	1	B99	0	0	0	0	0	0	0	1	0	0	0	false	0	false	false	false	false	0	0	0	0	0	0	0	0	0	0	0	0	0	0	0	0	0	0	0	0	1	S8231	'(NGQ09 empty empty empty empty empty empty empty empty empty empty)'	3	11
790	4	male	68	1953	1	F039	0	0	0	0	0	0	0	0	0	0	0	false	0	false	false	false	false	0	0	0	0	0	0	0	0	0	0	0	0	0	0	0	0	0	0	1	0	0	S8211	'(JAB30 ZSJ00 ZXA05 JAB30 empty NFH20 empty)'	3	7
837	0	woman	66	1957	1	I251	0	0	0	0	0	0	0	0	0	0	0	false	0	false	false	false	false	0	0	0	0	0	0	0	0	0	0	0	0	0	0	0	0	0	0	1	0	1	S8211	'(empty NFB49 empty empty empty NGJ09 NGJ29 NGM09 QDE35)'	5	11
2865	-1	woman	37	1995	1	C349	0	0	0	0	0	0	0	0	0	0	0	false	0	false	false	false	false	0	0	0	0	0	0	0	0	0	0	0	0	0	0	0	0	0	0	0	1	0	S8221	'(empty GBA35 GBA12 UGC12 UGB05 JAH00 LAE10 ZXA00 TNX25)'	3	2
1256	1	male	58	1999	1	C189	0	0	0	0	0	0	0	0	0	0	0	false	0	false	false	false	false	0	0	0	0	0	0	0	0	0	0	0	0	0	0	0	0	0	0	0	0	1	S8231	'(JFH10 empty empty empty empty NGJ09 NGJ29)'	5	2
2837	1	male	46	2001	1	I219	0	0	0	0	0	0	0	0	0	0	0	false	0	false	false	false	false	0	0	0	0	0	0	0	0	0	0	0	0	0	0	0	0	0	0	0	1	0	S8221	'(JAD30 ZXH60 JAD97 TKC20 empty GDC00 GDB10 PDG10 UJD02 NGJ19 NGJ29)'	3	5
2802	-1	woman	73	2015	1	I639	0	0	0	0	0	0	0	0	0	0	0	false	0	false	false	false	false	0	0	0	0	0	0	0	0	0	0	0	0	0	0	0	0	0	0	0	1	0	S8221	'(empty empty NGJ19 NGJ39)'	4	7
1241	1	woman	71	2025	1	R54	0	0	0	0	0	0	0	0	0	0	0	false	0	false	false	false	false	0	0	0	0	0	0	0	0	0	0	0	0	0	0	0	0	0	0	0	1	0	S8221	'(NFJ09 NFJ59 empty empty empty empty PDW99 PJD44 V9209 empty NGJ09 NFJ59)'	5	4
1287	-1	woman	71	2034	1	C509	0	0	0	0	0	0	0	0	0	0	0	false	0	false	false	false	false	0	0	0	0	0	0	0	0	0	0	0	0	0	0	0	0	0	0	0	0	1	S8231	'(empty empty NHJ19 NHJ69)'	4	10
3296	-1	male	65	2052	1	C61	0	0	0	0	0	0	0	0	0	0	0	false	0	false	false	false	false	0	0	0	0	0	0	0	0	0	0	0	0	0	0	0	0	0	0	0	0	1	S8231	'(empty empty)'	5	7
2123	-1	woman	59	2071	1	X599	0	0	0	0	0	0	0	0	0	0	0	false	0	false	false	false	false	0	0	0	0	0	0	0	0	0	0	0	0	0	0	0	0	0	0	0	1	0	S8221	'(empty NFU19 NFS19 NFS59 empty NFH20 NFH22 empty empty empty empty empty NGJ59)'	3	2
2206	1	woman	66	2071	1	G409	0	0	0	0	0	0	0	0	0	0	0	false	0	false	false	false	false	0	0	0	0	0	0	0	0	0	0	0	0	0	0	0	0	0	0	1	0	0	S8211	'(DG015 DG015 TED00 NFJ09 TNX33 DR029 UJC02 JDB10 DV065 empty empty)'	3	3
4242	0	male	49	2072	1	C80	0	0	0	0	0	0	0	0	0	0	0	false	0	false	false	false	false	0	0	0	0	0	0	0	0	0	0	0	0	0	0	0	0	0	0	0	1	0	S8221	'(empty AF015 AF022 AV034 TJJ00 JFB00 empty NGJ59 NGJ59 NBJ59 QDB10 QDB10 NGJ59 NBJ59)'	4	8
3584	1	woman	70	2074	1	I64	0	0	0	0	0	0	0	0	0	0	0	false	0	false	false	false	false	0	0	0	0	0	0	0	0	0	0	0	0	0	0	0	0	0	0	0	1	0	S8221	'(empty empty NHJ09 NHJ09)'	3	2
1324	1	woman	45	2078	1	C349	0	0	0	0	0	0	0	0	0	0	0	false	0	false	false	false	false	0	0	0	0	0	0	0	0	0	0	0	0	0	0	0	0	0	0	0	1	0	S8221	'(JDB10 TPX10 EAA10 EKW99 ZZS45 GDC00 GEA20 empty ENA10 UGC15 NGJ59 NGJ09 QDB05)'	3	8
4354	4	woman	54	2084	1	I258	1	1	1	0	1	0	0	0	0	0	0	false	0	false	false	false	false	0	0	0	0	0	0	0	0	0	0	0	0	0	0	0	0	0	0	0	0	1	S8231	'(empty empty empty NGJ09 NGQ19)'	3	9
4002	-1	woman	42	2089	1	C55	0	0	0	0	0	0	0	0	0	0	0	false	0	false	false	false	false	0	0	0	0	0	0	0	0	0	0	0	0	0	0	0	0	0	0	0	1	0	S8221	'(V9425 V9541 V9541 empty NFB49 V9541 QAA10 PJA10 UGC12 UJC02 UJC12 UDQ02 UDH05 EMB10 empty NGU49 empty empty empty NGJ09 NGJ59)'	3	12
504	4	woman	62	2091	1	J449	1	1	1	0	1	0	0	0	0	0	0	false	0	false	false	false	false	0	0	0	0	0	0	0	0	0	0	0	0	0	0	0	0	0	0	0	0	1	S8231	'(empty empty empty empty empty empty NGQ19 NGJ99 NGW79 QDB05 QDB10)'	3	2
1473	-2	male	27	2099	1	V234	0	0	0	0	0	0	0	0	0	0	0	false	0	false	false	false	false	0	0	0	0	0	0	0	0	0	0	0	0	0	0	0	0	0	0	0	1	0	S8221	'(NGU49 QDG30 NBH00 NGJ19 NGJ69)'	5	11
2788	0	woman	72	2101	1	I48	0	0	0	0	0	0	0	0	0	0	0	false	0	false	false	false	false	0	0	0	0	0	0	0	0	0	0	0	0	0	0	0	0	0	0	0	0	1	S8231	'(empty empty)'	3	12
1909	-2	male	65	2111	1	I219	0	0	0	0	0	0	0	0	0	0	0	false	0	false	false	false	false	0	0	0	0	0	0	0	0	0	0	0	0	0	0	0	0	0	0	0	1	0	S8221	'(empty empty NGJ29 QDE35 NGU39 NGJ59)'	3	3
3642	3	woman	43	2127	1	X45	0	0	0	0	0	0	0	0	0	0	0	false	0	false	false	false	false	0	0	0	0	0	0	0	0	0	0	0	0	0	0	0	0	0	0	0	0	1	S8231	'(NGU49 NHU49 empty NGJ19 NGJ49 NGN09 NHU49 empty NGJ49 TNG33 NGJ49 NGJ19 NHJ19 NHJ89 NGJ69 NGT99 NGT49 NHJ69 QDB05 NGJ29 NGJ19 NGS39 QDB05 QDG30)'	3	1
1250	2	male	57	2137	1	C159	0	0	0	0	0	0	0	0	0	0	0	false	0	false	false	false	false	0	0	0	0	0	0	0	0	0	0	0	0	0	0	0	0	0	0	0	1	0	S8221	'(JCF12 ZXH60 empty empty TBA00 NFB49 empty NGJ59 NGJ99 NGJ09 NGJ79)'	4	11
1529	4	woman	43	2151	1	X40	0	0	0	0	0	0	0	0	0	0	0	false	0	false	false	false	false	0	0	0	0	0	0	0	0	0	0	0	0	0	0	0	0	0	0	0	1	0	S8221	'(empty empty UJD02 empty UJD02 empty empty UJD02 NGJ09)'	3	7
2875	1	woman	67	2176	1	I5099	0	0	0	0	0	0	0	0	0	0	0	false	0	false	false	false	false	0	0	0	0	0	0	0	0	0	0	0	0	0	0	0	0	0	0	0	0	1	S8231	'(empty NFJ89 QAE10 QAE10 NCJ49 NCJ19 NGJ09 NGJ29 NGT49)'	3	12
757	-2	woman	49	2177	1	C349	0	0	0	0	0	0	0	0	0	0	0	false	0	false	false	false	false	0	0	0	0	0	0	0	0	0	0	0	0	0	0	0	0	0	0	0	0	1	S8231	'(empty empty empty NFJ09 NFJ89 empty NGJ29 NHN09 empty NHJ19 NHJ29 NHJ69 QDG30)'	4	5
3429	2	male	63	2211	1	I713	0	0	0	0	0	0	0	0	0	0	0	false	0	false	false	false	false	0	0	0	0	0	0	0	0	0	0	0	0	0	0	0	0	0	0	0	0	1	S8231	'(empty empty empty empty TNX25 TNX30 NBJ09 GBB00 V9201 V9127 GAA10)'	5	10
4173	2	woman	43	2223	1	C349	0	0	0	0	0	0	0	0	0	0	0	false	0	false	false	false	false	0	0	0	0	0	0	0	0	0	0	0	0	0	0	0	0	0	0	0	0	1	S8231	'(empty empty empty empty empty empty empty empty empty empty empty empty empty empty empty empty empty empty empty empty GAC01 TGA30 UGC12 empty FNG05 V9253 NGJ09)'	3	7
1484	1	male	48	2252	1	C349	0	0	0	0	0	0	0	0	0	0	0	true	0	false	false	true	false	0	0	0	0	0	0	0	0	0	0	0	0	0	0	0	0	1	0	0	1	0	S8221	'(empty NGJ59 NGJ19 QDB99 ZZR00 QDB10)'	4	3
3700	-1	male	62	2277	1	I251	0	0	0	0	0	0	0	0	0	0	0	false	0	false	false	false	false	0	0	0	0	0	0	0	0	0	0	0	0	0	0	0	0	0	0	0	1	0	S8221	'(empty NGU49 NGJ69 NGN09 NGJ69 TNX30)'	3	6
1965	3	male	60	2283	1	I5099	0	0	0	0	0	0	0	0	0	0	0	true	1	false	true	false	false	0	0	0	0	0	0	0	0	0	0	0	0	0	0	0	0	0	1	0	1	0	S8221	'(AF063 NGU39 empty NGJ09 NGJ29 NGJ29 NGJ09 QDB05 QDE35 ZZA00)'	2	10
1165	0	male	61	2285	1	C61	0	0	0	0	0	0	0	0	0	0	0	false	0	false	false	false	false	0	0	0	0	0	0	0	0	0	0	0	0	0	0	0	0	0	0	0	1	0	S8221	'(empty TNX32 QAB00 TNX32 NGJ09 TNX33)'	4	1
3682	3	male	62	2288	1	I219	0	0	0	0	0	0	0	0	0	0	0	false	0	false	false	false	false	0	0	0	0	0	0	0	0	0	0	0	0	0	0	0	0	0	0	0	1	0	S8221	'(empty empty empty empty NGJ59 NGJ09 NGJ59 NGJ09)'	5	9
3649	-2	woman	50	2308	1	I48	0	0	0	0	0	0	0	0	0	0	0	true	1	false	true	false	false	0	0	0	0	0	0	0	0	0	0	0	0	0	0	0	0	0	1	1	1	0	S8211	'(empty empty empty empty empty empty NGU49 NGJ29 QDE35 QDB00 NGW59 QDE35 ZZA00 NGU39 NGJ59)'	5	1
3453	1	woman	66	2316	1	X590	0	0	0	0	0	0	0	0	0	0	0	false	0	false	false	false	false	0	0	0	0	0	0	0	0	0	0	0	0	0	0	0	0	0	0	1	0	0	S8211	'(DR029 empty)'	2	7
2746	3	male	64	2324	1	F039	0	0	0	0	0	0	0	0	0	0	0	false	0	false	false	false	false	0	0	0	0	0	0	0	0	0	0	0	0	0	0	0	0	0	0	0	0	1	S8231	'(empty empty JFB20 JAB96 JWA00 empty UJF42 JGA05 UJD02 UJF42 NGJ19 NGJ69)'	5	1
653	-1	woman	59	2326	1	F329	0	0	0	0	0	0	0	0	0	0	0	false	0	false	false	false	false	0	0	0	0	0	0	0	0	0	0	0	0	0	0	0	0	0	0	0	0	1	S8231	'(empty empty empty V9216 empty NGJ29)'	1	11
1967	4	woman	40	2334	1	X64	0	0	0	0	0	0	0	0	0	0	0	false	0	false	false	false	false	0	0	0	0	0	0	0	0	0	0	0	0	0	0	0	0	0	0	0	1	0	S8221	'(NGJ59 NGJ09)'	3	6
1033	3	woman	62	2345	1	I48	0	0	0	0	0	0	0	0	0	0	0	false	0	false	false	false	false	0	0	0	0	0	0	0	0	0	0	0	0	0	0	0	0	0	0	0	1	0	S8221	'(empty empty DF016 DF016 empty FPE00 empty AG053 empty empty empty empty GAA10 GBB00 NCJ49 NCA02 TNX25)'	5	10
3435	-1	male	59	2375	1	C80	0	0	0	0	0	0	0	0	0	0	0	false	0	false	false	false	false	0	0	0	0	0	0	0	0	0	0	0	0	0	0	0	0	0	0	0	0	1	S8231	'(V9227 empty V9241 PJD41 PBL30 NGB49 NGJ09 empty empty NGJ19 NGJ29 QDB00 NHJ29)'	4	3
414	1	male	40	2387	1	C400	0	0	0	0	0	0	0	0	0	0	0	false	0	false	false	false	false	0	0	0	0	0	0	0	0	0	0	0	0	0	0	0	0	0	0	0	0	1	S8231	'(DT016 DT016 DT016 DR029 DT016 NFB49 empty)'	4	6
1289	2	woman	73	2389	1	I5099	0	0	0	0	0	0	0	0	0	0	0	false	0	false	false	false	false	0	0	0	0	0	0	0	0	0	0	0	0	0	0	0	0	0	0	0	0	1	S8231	'(empty UJD02 TKC20 NEJ29 NHJ69 NHJ69 NEJ99)'	4	4
838	4	male	44	2391	1	R999	0	0	0	0	0	0	0	0	0	0	0	false	0	false	false	false	false	0	0	0	0	0	0	0	0	0	0	0	0	0	0	0	0	0	0	0	0	1	S8231	'(KKA00 empty empty empty NGJ29)'	3	3
3366	1	woman	58	2392	1	C349	0	0	0	0	0	0	0	0	0	0	0	false	0	false	false	false	false	0	0	0	0	0	0	0	0	0	0	0	0	0	0	0	0	0	0	0	1	0	S8221	'(empty empty empty empty empty empty empty NGJ59)'	3	3
1961	0	woman	70	2397	1	I679	0	0	0	0	0	0	0	0	0	0	0	false	0	false	false	false	false	0	0	0	0	0	0	0	0	0	0	0	0	0	0	0	0	0	0	0	1	0	S8221	'(TNX30 QDB00 NGJ09 NGJ29)'	3	12
1392	2	woman	64	2398	1	D432	0	0	0	0	1	0	0	0	0	0	0	false	0	false	false	false	false	0	0	0	0	0	0	0	0	0	0	0	0	0	0	0	0	0	0	0	1	0	S8221	'(empty JFB30 empty empty empty NCU39 NGQ19 NGU39 NGJ29 NCJ29 NCJ09 NCJ59 NGJ09 NGJ29)'	5	9
1902	-1	woman	42	2399	1	I619	0	0	0	0	0	0	0	0	0	0	0	false	0	false	false	false	false	0	0	0	0	0	0	0	0	0	0	0	0	0	0	0	0	0	0	0	0	1	S8231	'(empty empty empty NHJ09 NHJ09 TNX30 TNX30)'	3	2
4390	4	woman	70	2410	1	I5099	0	0	0	0	0	0	0	0	0	0	0	false	0	false	false	false	false	0	0	0	0	0	0	0	0	0	0	0	0	0	0	0	0	0	0	1	0	0	S8211	'(empty empty)'	3	5
2477	-2	male	40	2415	1	C80	0	0	0	0	0	0	0	0	0	0	0	false	0	false	false	false	false	0	0	0	0	0	0	0	0	0	0	0	0	0	0	0	0	0	0	0	1	0	S8221	'(UJD02 V9209 empty UKC05 empty empty empty AWA00 ABB00 empty NGJ59)'	5	5
2773	4	woman	42	2430	1	C349	0	0	0	0	0	0	0	0	0	0	0	false	0	false	false	false	false	0	0	0	0	0	0	0	0	0	0	0	0	0	0	0	0	0	0	0	0	1	S8231	'(GAA10 TGA30 DG015 DG001 GAA10 UGC15 empty empty UJD02 UJF45 NGJ09 NGJ59)'	2	3
2404	-2	male	9	2432	1	Y12	0	0	0	0	0	0	0	0	0	0	0	false	0	false	false	false	false	0	0	0	0	0	0	0	0	0	0	0	0	0	0	0	0	0	0	0	1	0	S8221	'(empty QCB00 QCB05 empty NGJ09 NGJ59 NGU39 NGJ19)'	2	7
2188	2	woman	69	2440	1	I64	0	0	0	0	0	0	0	0	0	0	0	false	0	false	false	false	false	0	0	0	0	0	0	0	0	0	0	0	0	0	0	0	0	0	0	0	1	0	S8221	'(NGJ59 NGJ19 QDB05)'	3	9
905	3	male	28	2464	1	R999	0	0	0	0	0	0	0	0	0	0	0	false	0	false	false	false	false	0	0	0	0	0	0	0	0	0	0	0	0	0	0	0	0	0	0	1	0	0	S8211	'(empty empty empty empty empty empty empty empty NGJ69 NGJ79 NDJ79 TNX39 TNX39 TNX39 empty)'	4	2
3432	-1	woman	59	2483	1	C349	0	0	0	0	0	0	0	0	0	0	0	false	0	false	false	false	false	0	0	0	0	0	0	0	0	0	0	0	0	0	0	0	0	0	0	0	1	0	S8221	'(empty empty NFJ59 V9209 CKC70 CKD65 CKD30 CKD40 CKD10 empty empty NGJ59 NGJ09 TNX30 ZXD00 ZXE10 ZXH40)'	3	3
1387	-2	male	21	2488	1	V284	0	0	0	0	0	0	0	0	0	0	0	true	1	false	true	false	false	0	0	0	0	0	0	0	0	0	0	0	0	0	0	0	0	0	1	0	1	0	S8221	'(YJA10 ZXF99 JKA21 TJK01 empty empty empty NGN09 NGM09 NGJ19 NGJ29 QDB10 QDE35 QDB10 QDE35 ZZA00)'	5	8
453	-1	male	64	2490	1	I350	0	0	0	0	0	0	0	0	0	0	0	false	0	false	false	false	false	0	0	0	0	0	0	0	0	0	0	0	0	0	0	0	0	0	0	1	0	0	S8211	'(empty empty empty empty empty NGU39 TNX30 empty NGU39 NGJ29 empty NGJ29)'	5	1
2338	0	woman	66	2510	1	I251	0	0	0	0	0	0	0	0	0	0	0	false	0	false	false	false	false	0	0	0	0	0	0	0	0	0	0	0	0	0	0	0	0	0	0	0	1	0	S8221	'(empty empty V9526 NGU39 XXA00 NGJ29)'	3	3
3791	2	woman	63	2518	1	G20	0	0	0	0	0	0	0	0	0	0	0	false	0	false	false	false	false	0	0	0	0	0	0	0	0	0	0	0	0	0	0	0	0	0	0	1	0	0	S8211	'(empty empty UJD02 empty empty empty)'	2	12
3324	2	male	35	2532	1	C249	0	0	0	0	0	0	0	0	0	0	0	false	0	false	false	false	false	0	0	0	0	0	0	0	0	0	0	0	0	0	0	0	0	0	0	0	1	0	S8221	'(JKB30 empty JKB30 JDH15 empty empty NEJ29)'	4	3
1637	3	male	41	2598	1	E149	0	0	0	0	0	0	0	0	0	0	0	false	0	false	false	false	false	0	0	0	0	0	0	0	0	0	0	0	0	0	0	0	0	0	0	0	0	1	S8231	'(DR016 DR029 DV097 empty DR029 NBJ09 TNB32 PBL30 empty TKA00 CHF05 empty empty V9253 NGJ59)'	3	7
107	0	woman	75	2601	1	I64	0	0	0	0	0	0	0	0	0	0	0	false	0	false	false	false	false	0	0	0	0	0	0	0	0	0	0	0	0	0	0	0	0	0	0	0	1	0	S8221	'(NGU49 QDG30 NGJ69)'	2	6
1792	-2	male	52	2622	1	E109	0	0	0	0	0	0	0	0	0	0	0	false	0	false	false	false	false	0	0	0	0	0	0	0	0	0	0	0	0	0	0	0	0	0	0	0	1	0	S8221	'(empty KCJ00 KGH10 V9209 KCJ00 KGH10 empty NDQ16 empty empty empty NGJ69 NGU49 NGN09 NGJ19 NGJ69 NGL49 QDG30)'	3	5
1746	2	woman	58	2625	1	J449	0	0	0	0	0	0	0	0	0	0	0	false	0	false	false	false	false	0	0	0	0	0	0	0	0	0	0	0	0	0	0	0	0	0	0	0	1	0	S8221	'(empty empty empty empty empty empty V9125 empty empty UJD02 empty empty empty empty empty NGJ19 NGJ59 NGJ99 NGN09 NGJ19 NGJ29)'	3	3
892	-2	woman	72	2628	1	A083	0	0	0	0	0	0	0	0	0	0	0	false	0	false	false	false	false	0	0	0	0	0	0	0	0	0	0	0	0	0	0	0	0	0	0	0	1	0	S8221	'(empty empty empty HAC22 ZXA00 empty)'	5	11
4374	1	woman	50	2644	1	I5099	0	0	0	0	0	0	0	0	0	0	0	false	0	false	false	false	false	0	0	0	0	0	0	0	0	0	0	0	0	0	0	0	0	0	0	0	0	1	S8231	'(UJD02 UJF35 DR029 DV091 DV091 empty empty empty empty empty empty empty empty empty empty NGU39 XXA00 NGJ19 NGJ29)'	3	4
2278	1	male	64	2678	1	I219	0	0	0	0	0	0	0	0	0	0	0	false	0	false	false	false	false	0	0	0	0	0	0	0	0	0	0	0	0	0	0	0	0	0	0	0	1	0	S8221	'(empty empty KED22 empty NGJ09 NGJ59)'	5	3
2978	0	male	8	2682	1	W30	0	0	0	0	0	0	0	0	0	0	0	false	0	false	false	false	false	0	0	0	0	0	0	0	0	0	0	0	0	0	0	0	0	0	0	0	1	0	S8221	'(empty empty empty empty empty empty empty UJF35 empty NGJ29 NGJ09)'	5	10
3742	1	woman	50	2682	1	C187	0	0	0	0	0	0	0	0	0	0	0	false	0	false	false	false	false	0	0	0	0	0	0	0	0	0	0	0	0	0	0	0	0	0	0	0	1	0	S8221	'(DV053 DV055 XS001 QM007 QM009 PT002 DR029 AA011 empty empty JFF23 UJG02 UKC02 KBV02 AG009 AJ004 AN036 AK002 NGJ59)'	2	10
3501	2	woman	53	2690	1	R990	0	0	0	0	0	0	0	0	0	0	0	false	0	false	false	false	false	0	0	0	0	0	0	0	0	0	0	0	0	0	0	0	0	0	0	1	0	0	S8211	'(NGB49 ZXA00 NGB49 ZXA05 NGJ69 NGJ19 NGK59 LEG10 ZXD10 NGU49 empty)'	3	3
1414	1	woman	73	2691	1	R54	0	0	0	0	0	0	0	0	0	0	0	false	0	false	false	false	false	0	0	0	0	0	0	0	0	0	0	0	0	0	0	0	0	0	0	0	0	1	S8231	'(empty empty empty empty NGJ19 NGJ29)'	3	12
2673	3	woman	50	2699	1	I5099	0	1	1	0	1	0	0	0	0	0	0	true	0	true	true	false	true	0	0	0	0	0	0	0	0	0	0	0	0	0	1	0	0	0	1	0	0	1	S8231	'(empty DG015 AP071 DV097 TPH15 empty NGQ19 empty AG047 AG048 DG015 empty empty empty empty empty NHS59 ZXA00 DT016 empty empty empty empty empty V9253 empty PES12 empty empty empty empty NHG49 NGU49 empty empty NGJ59 NGN09 empty ZZQ30 ZZA00 NGJ29 QDB05 ZZA00 NDJ09 NDJ49 QDB05 ZZA00)'	5	11
1852	-1	male	20	2733	1	X74	0	0	0	0	1	0	0	0	0	0	0	true	1	false	true	false	false	0	0	0	0	0	0	0	0	0	0	0	0	0	0	0	0	0	1	0	0	1	S8231	'(empty empty empty empty empty empty empty empty QBD00 QCD10 QDD10 ZZA20 QAD00 QCD20 QDD20 ZZA00 V9208 empty empty empty empty empty NGJ29 NGK09 NGQ19 NCJ09 NGQ29 NCJ29 JAH00 NFJ59 FCC50 NGJ19)'	4	4
1267	2	male	58	2734	1	C61	0	0	0	0	0	0	0	0	0	0	0	false	0	false	false	false	false	0	0	0	0	0	0	0	0	0	0	0	0	0	0	0	0	0	0	0	0	1	S8231	'(ZV034 empty empty empty NFJ79 NFJ09 NGJ29)'	2	6
1848	-1	male	60	2744	1	F019	0	0	0	0	0	0	0	0	0	0	0	false	0	false	false	false	false	0	0	0	0	0	0	0	0	0	0	0	0	0	0	0	0	0	0	0	1	0	S8221	'(NFB09 ZXA00 ZXD00 empty empty empty empty empty empty empty NGU49 NGN09 NGK19 empty)'	5	12
4109	1	male	51	2795	1	C159	0	0	0	0	0	0	0	0	0	0	0	false	0	false	false	false	false	0	0	0	0	0	0	0	0	0	0	0	0	0	0	0	0	0	0	0	1	0	S8221	'(JDB10 TGA30 TGA30 TJD00 DT015 ZV034 JCF12 UJD05 SP199 DV055 V9216 V9216 empty QDB05 NGJ19 NGJ29 NHJ79 NHJ19)'	5	4
872	0	male	51	2797	1	I219	0	0	0	0	1	0	0	0	0	0	0	false	0	false	false	false	false	0	0	0	0	0	0	0	0	0	0	0	0	0	0	0	0	0	0	0	1	0	S8221	'(empty empty empty empty empty empty NGQ19 empty NGJ69 NGJ49)'	3	11
2435	-1	woman	63	2835	1	G20	0	0	0	0	0	0	0	0	0	0	0	false	0	false	false	false	false	0	0	0	0	0	0	0	0	0	0	0	0	0	0	0	0	0	0	0	1	0	S8221	'(empty empty empty empty NFJ09 NFJ79 empty empty NGJ99 NGJ69 NGN09 empty NGJ09 NGJ69 NGJ29)'	3	5
1920	0	woman	60	2854	1	I639	0	0	0	0	0	0	0	0	0	0	0	false	0	false	false	false	false	0	0	0	0	0	0	0	0	0	0	0	0	0	0	0	0	0	0	0	0	1	S8231	'(empty empty PFH29 NHJ89)'	1	9
745	2	male	51	2881	1	I64	0	0	0	0	0	0	0	0	0	0	0	false	0	false	false	false	false	0	0	0	0	0	0	0	0	0	0	0	0	0	0	0	0	0	0	0	0	1	S8231	'(empty empty AG053 AV100 empty TAB00 AA027 AA058 NHJ09 NHJ29 NHU39 NGJ29)'	4	2
1437	-1	male	37	2981	1	I219	0	0	0	0	0	0	0	0	0	0	0	true	1	false	true	false	false	0	0	0	0	0	0	0	0	0	0	0	0	0	0	0	0	0	1	0	0	1	S8231	'(JFA15 DT016 ZV020 empty empty KCE02 empty QDB10 TNX25 ZZA00 NGJ69 NAG49 NAJ19)'	5	11
1206	-1	woman	59	2982	1	C80	0	0	0	0	0	0	0	0	0	0	0	false	0	false	false	false	false	0	0	0	0	0	0	0	0	0	0	0	0	0	0	0	0	0	0	1	0	0	S8211	'(empty empty empty)'	3	1
303	1	male	36	3004	1	I48	0	0	0	0	0	0	0	0	0	0	0	false	0	false	false	false	false	0	0	0	0	0	0	0	0	0	0	0	0	0	0	0	0	0	0	1	0	0	S8211	'(empty AF037 empty empty NGU49 empty empty)'	3	12
3443	-1	woman	53	3005	1	K529	0	0	0	0	0	0	0	0	0	0	0	false	0	false	false	false	false	0	0	0	0	0	0	0	0	0	0	0	0	0	0	0	0	0	0	0	0	1	S8231	'(QXB10 NGU49 NGW69 PFU74 PFU83 TNX30 NGJ19 NGJ59 NGC39 PEP12 TNX30 NGJ19 NGJ59 NGC39)'	3	8
29	-1	male	61	3052	1	I64	0	0	0	0	0	0	0	0	0	0	0	false	0	false	false	false	false	0	0	0	0	0	0	0	0	0	0	0	0	0	0	0	0	0	0	1	0	0	S8211	'(empty TPX10 ZXH10 ZXA05 empty empty empty empty NGJ19 NGJ69 ZXD00 ZXE20 ZXH50)'	3	4
4342	1	male	25	3144	1	I619	0	0	0	0	0	0	0	0	0	0	0	false	0	false	false	false	false	0	0	0	0	0	0	0	0	0	0	0	0	0	0	0	0	0	0	0	1	0	S8221	'(empty AAB30 AAB30 AAF00 AAF00 NGU39 NHJ69 empty)'	5	3
2793	-1	woman	54	3146	1	C349	0	0	0	0	0	0	0	0	0	0	0	false	0	false	false	false	false	0	0	0	0	0	0	0	0	0	0	0	0	0	0	0	0	0	0	0	1	0	S8221	'(empty NGU49 NGJ19 NGJ59)'	2	2
1367	-1	male	50	3169	1	E147	0	0	0	0	0	0	0	0	0	0	0	false	0	false	false	false	false	0	0	0	0	0	0	0	0	0	0	0	0	0	0	0	0	0	0	0	1	0	S8221	'(empty empty empty empty empty empty empty empty empty empty NGJ89)'	2	5
1912	-2	woman	43	3206	1	I110	0	0	0	0	0	0	0	0	0	0	0	false	0	false	false	false	false	0	0	0	0	0	0	0	0	0	0	0	0	0	0	0	0	0	0	0	1	0	S8221	'(empty UJG02 NGJ19 NGJ69 NGJ49 TNX25 TNX30)'	3	7
12	-1	male	58	3240	1	C859	0	0	0	0	0	0	0	0	0	0	0	false	0	false	false	false	false	0	0	0	0	0	0	0	0	0	0	0	0	0	0	0	0	0	0	0	1	0	S8221	'(empty empty DU007 AF021 empty empty empty empty PJD41 ZXC00 XXA00 NGU39 NGJ69 NGN09 QDB99 NGJ29 NGJ29 ZZA50 QDB99 ZZA10 NGJ29 NGJ09)'	5	11
3512	-2	male	62	3273	1	I251	0	0	0	0	0	0	0	0	0	0	0	false	0	false	false	false	false	0	0	0	0	0	0	0	0	0	0	0	0	0	0	0	0	0	0	0	0	1	S8231	'(JFB00 JHA10 JHD00 UJG02 JHA00 FNG05 AF037 AF021 empty NGJ29 NGJ09 NGJ49 NGN09)'	4	9
4278	-1	woman	61	3338	1	I64	0	0	0	0	0	0	0	0	0	0	0	false	0	false	false	false	false	0	0	0	0	0	0	0	0	0	0	0	0	0	0	0	0	0	0	0	1	0	S8221	'(empty UKC02 empty empty empty empty empty empty NGJ09 NGJ59)'	3	3
228	1	woman	51	3349	1	I5009	0	0	0	0	0	0	0	0	0	0	0	false	0	false	false	false	false	0	0	0	0	0	0	0	0	0	0	0	0	0	0	0	0	0	0	0	0	1	S8231	'(XS001 XS009 XS009 DG001 AF020 AG009 TGA30 AF020 AF053 AJ004 XS009 DV025 NGS39 empty empty NGB49 KBE12 KBV02 NFB49 KAE11 KBV00 empty NGJ19 NGJ69)'	3	8
2380	1	woman	55	3349	1	C509	0	0	0	0	0	0	0	0	0	0	0	false	0	false	false	false	false	0	0	0	0	0	0	0	0	0	0	0	0	0	0	0	0	0	0	0	1	0	S8221	'(empty empty empty NFB49 ZXC20 ZXD10 ZXA05 NGJ29)'	3	4
87	1	woman	53	3380	1	C900	0	0	0	0	0	0	0	0	0	0	0	false	0	false	false	false	false	0	0	0	0	0	0	0	0	0	0	0	0	0	0	0	0	0	0	0	0	1	S8231	'(DT019 AG038 DT019 QD014 DR029 GAA10 TGA30 LCB25 NGU49 NGJ59 NGJ19)'	5	5
2237	-2	male	33	3391	1	C80	0	0	0	0	0	0	0	0	0	0	0	false	0	false	false	false	false	0	0	0	0	0	0	0	0	0	0	0	0	0	0	0	0	0	0	0	1	0	S8221	'(PJD51 ZXA05 UEN05 ZXA05 XXA00 empty AE015 UJC02 UEN15 XXA00 empty empty empty empty empty empty empty empty empty empty empty empty empty empty empty empty empty empty empty empty empty empty empty empty empty empty empty empty empty empty empty empty empty empty empty empty empty empty empty empty empty empty empty empty empty empty empty empty empty empty empty empty empty empty empty empty empty empty empty empty empty empty empty empty empty empty empty empty empty empty empty empty empty empty empty empty empty empty empty empty empty empty empty empty empty empty empty empty empty empty NHJ79)'	3	2
467	-2	woman	58	3416	1	I219	0	0	0	0	0	0	0	0	0	0	0	false	0	false	false	false	false	0	0	0	0	0	0	0	0	0	0	0	0	0	0	0	0	0	0	0	0	1	S8231	'(empty empty empty empty empty empty NGJ19 NGJ49 TNX30)'	3	4
1446	-1	woman	52	3433	1	C509	0	0	0	0	0	0	0	0	0	0	0	false	0	false	false	false	false	0	0	0	0	0	0	0	0	0	0	0	0	0	0	0	0	0	0	0	0	1	S8231	'(TJA10 empty JKA21 TJK01 HAC22 ZXA00 LAF10 NHU39 ZXA05 NGJ99 ZXA05)'	2	8
1031	-2	male	49	3494	1	C259	0	0	0	0	0	0	0	0	0	0	0	true	0	true	true	true	true	0	0	0	0	0	0	0	1	0	0	0	0	0	1	0	0	0	1	0	1	0	S8221	'(empty empty AF020 AG051 UGC02 GCA10 empty empty empty empty QDB05 ZZS20 ZZA00 empty empty QDE00 ZZA00 XXA00 NGU39 TNX30 empty empty QDG20 ZZQ30 ZZP00 ZZA00 NFN09 ZZP00 QDE35 ZZA00 QDE99 QDE10 ZZA00 empty NGJ29)'	3	10
2700	0	woman	53	3497	1	K922	0	0	0	0	0	0	0	0	0	0	0	false	0	false	false	false	false	0	0	0	0	0	0	0	0	0	0	0	0	0	0	0	0	0	0	0	1	0	S8221	'(DR029 DR029 empty NGJ09 NGJ59 ZXH00 ZXH40)'	3	7
1349	-2	woman	65	3500	1	C189	0	0	0	0	0	0	0	0	0	0	0	false	0	false	false	false	false	0	0	0	0	0	0	0	0	0	0	0	0	0	0	0	0	0	0	0	0	1	S8231	'(empty AJ039 DR029 empty empty empty empty empty empty empty empty empty AF037 FNG02 empty empty empty empty empty empty empty empty empty empty empty empty NFB49 NFU49 empty empty)'	3	4
3561	-2	male	49	3507	1	C189	0	0	0	0	0	0	0	0	0	0	0	false	0	false	false	false	false	0	0	0	0	0	0	0	0	0	0	0	0	0	0	0	0	0	0	0	1	0	S8221	'(AJ084 AJ004 AG040 AF022 DT019 UJD02 UJF32 TPH20 TKC20 V9201 empty empty NGU39 NGJ19 NGJ29 QDE35)'	3	2
1697	0	male	35	3586	1	K922	0	0	0	0	0	0	0	0	0	0	0	true	1	false	true	false	false	0	0	0	0	0	0	0	0	0	0	0	0	0	0	0	0	0	1	0	0	1	S8231	'(JDH70 JDB00 empty empty empty empty empty empty empty empty UJD05 DR029 JKA20 empty empty empty empty UJD02 empty empty empty empty NGJ09 NGJ29 QDB05 QDB00 TNX25 QDB05 QDB10 NHN99 ZZA00)'	5	12
4246	-1	male	34	3613	1	R999	0	0	0	0	0	0	0	0	0	0	0	false	0	false	false	false	false	0	0	0	0	0	0	0	0	0	0	0	0	0	0	0	0	0	0	0	1	0	S8221	'(DR029 DR029 UJD02 empty GEA00 AG053 empty empty NFJ09 NFJ59 empty empty NGJ09 NGJ59)'	3	8
2871	-2	male	39	3616	1	W69	0	0	0	0	0	0	0	0	0	0	0	false	0	false	false	false	false	0	0	0	0	0	0	0	0	0	0	0	0	0	0	0	0	0	0	0	1	0	S8221	'(NGJ19 NGJ59 NGJ09 NGJ29)'	5	9
2670	0	male	34	3646	1	D761	0	0	0	0	0	0	0	0	0	0	0	false	0	false	false	false	false	0	0	0	0	0	0	0	0	0	0	0	0	0	0	0	0	0	0	0	1	0	S8221	'(empty empty UJD02 JMA11 empty empty empty JKA21 NGJ09 NGJ59 QDB00 QDB00)'	1	1
1560	0	male	53	3679	1	C831	0	0	0	0	0	0	0	0	0	0	0	true	0	false	false	true	false	0	0	0	0	0	0	0	0	0	0	0	0	0	0	0	0	1	0	0	1	0	S8221	'(empty DG015 DT016 empty empty DR029 DR038 TJA10 ZXC40 TJA10 TJA10 ZXC40 DT016 QAE10 ZZR00 QAE10 empty empty V9209 empty V9425 TPX10 PJD41 empty NGJ59)'	3	8
3830	0	woman	67	3726	1	F039	0	0	0	0	0	0	0	0	0	0	0	false	0	false	false	false	false	0	0	0	0	0	0	0	0	0	0	0	0	0	0	0	0	0	0	0	1	0	S8221	'(empty QAE10 ZZA50 empty NGU49 NGJ59 empty NGJ59)'	3	2
3973	-1	male	1	3740	1	C924	0	0	0	0	0	0	0	0	0	0	0	false	0	false	false	false	false	0	0	0	0	0	0	0	0	0	0	0	0	0	0	0	0	0	0	0	1	0	S8221	'(DG021 DR029 SR201 AP075 DG017 AA011 TKC20 AAB30 AAB99 NGU39 TNX30 empty QDB00 NGJ09 NGJ29 NGJ99)'	3	7
3650	-2	male	60	3780	1	E145	0	1	1	0	0	0	1	0	0	0	0	false	0	false	false	false	false	0	0	0	0	0	0	0	0	0	0	0	0	0	0	0	0	0	0	0	0	1	S8231	'(empty DR029 QDB05 AF037 AP032 AF020 SL100 NHQ14 PEP12 PEQ12 AP032 AP032 empty empty FNG05 V9216 FXA00 FNA00 FNC20 TFP00 NGJ09 NGJ29)'	4	9
1360	-1	male	31	3845	1	C349	0	0	0	0	0	0	0	0	0	0	0	false	0	false	false	false	false	0	0	0	0	0	0	0	0	0	0	0	0	0	0	0	0	0	0	0	1	0	S8221	'(empty NFJ09 NFJ89 empty NHS29 empty NGJ29 NAJ89 NAW69 NAS59 NAW69 NAS59 NEJ89 NEJ29)'	3	12
100	-2	male	48	3889	1	C61	0	0	0	0	0	0	0	0	0	0	0	false	0	false	false	false	false	0	0	0	0	0	0	0	0	0	0	0	0	0	0	0	0	0	0	0	1	0	S8221	'(DV071 DR029 TNG33 DR029 AF021 empty empty empty TNX30)'	5	10
1106	-1	male	60	4011	1	C20	0	0	0	0	0	0	0	0	0	0	0	false	0	false	false	false	false	0	0	0	0	0	0	0	0	0	0	0	0	0	0	0	0	0	0	0	0	1	S8231	'(XS922 AA024 AF022 DT024 empty AF022 DT024 XS009 AG041 XS009 empty AF020 AG040 AA052 AF022 V9512 NGJ09 NGN09 NGJ69 NGK69 NGJ19 NGJ69 NGJ09 NGJ29 empty NGJ19 NGJ29)'	4	9
2173	-1	male	39	4037	1	C2299	0	0	0	0	0	0	0	0	0	0	0	false	0	false	false	false	false	0	0	0	0	0	0	0	0	0	0	0	0	0	0	0	0	0	0	0	0	1	S8231	'(TJA10 DT019 empty NGS19 NGS59 TNX25 QDB10 NGJ09 NGJ59)'	3	4
880	-1	male	55	4187	1	I251	0	0	0	0	0	0	0	0	0	0	0	false	0	false	false	false	false	0	0	0	0	0	0	0	0	0	0	0	0	0	0	0	0	0	0	0	1	0	S8221	'(FNC20 FXA00 AF037 AF032 AF037 empty empty UEN02 PJD51 ZXC00 ZXC20 DWE00 ZXC00 empty empty V9541 EJW99 XXA00 UGB02 UGC12 UJC02 UEN12 UJC12 ZXC00 UDH05 UEN05 EMB10 empty empty PDG21 empty QDG30 empty)'	5	1
1274	-2	woman	34	4293	1	G310	0	0	0	0	0	0	0	0	0	0	0	false	0	false	false	false	false	0	0	0	0	0	0	0	0	0	0	0	0	0	0	0	0	0	0	1	0	0	S8211	'(AG009 AG040 AJ039 DV065 AG040 DV065 AG040 AJ039 JDB10 UJD02 DV065 DV055 DJ010 empty empty empty empty empty)'	5	8
214	-2	male	39	4394	1	I219	0	0	0	0	0	0	0	0	0	0	0	false	0	false	false	false	false	0	0	0	0	0	0	0	0	0	0	0	0	0	0	0	0	0	0	0	0	1	S8231	'(AF037 DG002 AF021 AG008 empty empty empty empty empty NGJ59)'	1	8
387	-2	male	30	4405	1	C220	0	0	0	0	0	0	0	0	0	0	0	false	0	false	false	false	false	0	0	0	0	0	0	0	0	0	0	0	0	0	0	0	0	0	0	0	1	0	S8221	'(DR029 TJA10 PCT20 ZXC40 TKC20 PCT20 ZXC40 UJD02 TPX10 ZXA00 ZXD00 empty empty ABB00 ABW99 empty ABB20 XAX00 empty ABE99 ZZC10 empty ABE20 ABC36 empty empty TNX30 NGJ09)'	3	6
1754	-2	male	47	4608	1	C80	0	0	0	0	0	0	0	0	0	0	0	false	0	false	false	false	false	0	0	0	0	0	0	0	0	0	0	0	0	0	0	0	0	0	0	0	1	0	S8221	'(AN052 AN074 AG040 AA011 ZV033 AN056 AN016 DR030 DR030 empty empty empty NGJ99 NGU49 NGJ59 NGJ09 NGM09 XNX00)'	3	1
44	2	male	38	#f	1	8500	0	0	0	0	0	0	0	0	0	0	0	false	0	false	false	false	false	0	0	0	0	0	0	0	0	0	0	0	0	0	0	0	0	0	0	0	1	0	S8221	'(empty NGJ09 NGJ99 NGJ09 NGN99)'	4	3
380	-2	male	67	#f	1	X64	0	0	0	0	0	0	0	0	0	0	0	false	0	false	false	false	false	0	0	0	0	0	0	0	0	0	0	0	0	0	0	0	0	0	0	0	1	0	S8221	'(empty empty TNX30)'	3	9
733	-1	male	29	#f	1	I251	0	0	0	0	0	0	0	0	0	0	0	false	0	false	false	false	false	0	0	0	0	0	0	0	0	0	0	0	0	0	0	0	0	0	0	0	1	0	S8221	'(NGJ59)'	3	9
968	6	male	32	#f	1	7630	0	0	0	0	0	0	0	0	0	0	0	false	0	false	false	false	false	0	0	0	0	0	0	0	0	0	0	0	0	0	0	0	0	0	0	1	0	0	S8211	'(NGE22 ZXA00 NGK59 NGN09 NGU49 ZXA05 SI410 NGA11 SA331 XXA00 NGE41 NGE42 ZZB10 NGH11 NGJ29 QDB05 NGA02 QDB10 NGJ79 NGJ19 NGE22 NGL49 QDB05 QDG30)'	1	2
1671	-2	male	40	#f	1	I219	0	0	0	0	0	0	0	0	0	0	0	false	0	false	false	false	false	0	0	0	0	0	0	0	0	0	0	0	0	0	0	0	0	0	0	0	1	0	S8221	'(AF022 AF022 empty V9512 V9576 V9125 empty empty empty empty empty NGJ59 NGJ59 NGU49 empty NGJ09 NGJ09 NGJ29)'	4	7
1999	-1	male	14	#f	1	F112	0	0	0	0	0	0	0	0	0	0	0	false	0	false	false	false	false	0	0	0	0	0	0	0	0	0	0	0	0	0	0	0	0	0	0	0	1	0	S8221	'(empty QDB00 NGJ09)'	5	4
2374	-1	male	29	#f	1	I5199	0	0	0	0	0	0	0	0	0	0	0	false	0	false	false	false	false	0	0	0	0	0	0	0	0	0	0	0	0	0	0	0	0	0	0	0	1	0	S8221	'(empty UJD05 empty empty NGK69 empty ACA99 empty empty)'	5	10
2784	4	male	9	#f	1	X42	0	0	0	0	0	0	0	0	0	0	0	false	0	false	false	false	false	0	0	0	0	0	0	0	0	0	0	0	0	0	0	0	0	0	0	0	1	0	S8221	'(NGJ59 NGJ09)'	1	5
2959	5	male	42	#f	1	F102	0	0	0	0	0	0	0	0	0	0	0	false	0	false	false	false	false	0	0	0	0	0	0	0	0	0	0	0	0	0	0	0	0	0	0	0	1	0	S8221	'(NGJ29 NGJ09)'	3	12
3458	3	male	30	#f	1	X42	0	0	0	0	0	0	0	0	0	0	0	false	0	false	false	false	false	0	0	0	0	0	0	0	0	0	0	0	0	0	0	0	0	0	0	0	1	0	S8221	'(empty empty NFU49 NFS59 empty NFJ89 NFJ79 NFJ19 NGJ79 NGJ59 NGJ79 NGJ59 NGJ09 NGJ09 NHJ49 NHJ19 NHJ09 NGJ29 TNX40)'	5	9
4323	6	male	49	#f	1	I608	0	0	0	0	0	0	0	0	0	0	0	false	0	false	false	false	false	0	0	0	0	0	0	0	0	0	0	0	0	0	0	0	0	0	0	0	1	0	S8221	'(NGJ19 NGJ69)'	3	3
id	år	kon	alder	dt	dod	dodcode	amp-1	amp	amp-3	amp-20	NGQ19	NFQ19	NHQ14	NGQ09	NHQ09	NHQ11	NHQ13	plastic	only_a00	pl_int	pl_a	pl_r	pl_q	ZZR05	ZZR10	ZZR20	ZZR30	ZZR40	ZZS00	ZZS10	ZZS20	ZZS40	ZZM00	ZZQ00	ZZQ10	ZZQ20	ZZQ30	ZZQ40	ZZQ60	ZZR00	ZZA00	S8211	S8221	S8231	diagnos	codes	accident	first-month
